<?xml version="1.0" encoding="UTF-8"?>
<svg width="550px" height="47px" viewBox="0 0 550 47" version="1.1" xmlns="http://www.w3.org/2000/svg" xmlns:xlink="http://www.w3.org/1999/xlink">
    <title>C93420A1-0F27-4AD8-97D8-BD36EB4C0623</title>
    <defs>
        <linearGradient x1="0%" y1="49.634876%" x2="100%" y2="50.365124%" id="linearGradient-1">
            <stop stop-color="#9EF3C7" offset="0%"></stop>
            <stop stop-color="#004BFF" offset="100%"></stop>
        </linearGradient>
    </defs>
    <g id="00_Design-System" stroke="none" stroke-width="1" fill="none" fill-rule="evenodd">
        <g id="Design-System-Images" transform="translate(-54.000000, -1392.000000)" fill="url(#linearGradient-1)">
            <g id="SectionDividers" transform="translate(34.000000, 1294.000000)">
                <g id="gradient-header" transform="translate(20.000000, 98.000000)">
                    <path d="M549.883978,45.4573169 C549.883978,45.4573169 495.124699,31.0710176 423.304719,38.88814 C353.025514,46.5374775 320.320981,36.4023304 280.807418,33.9356036 C194.292339,28.5348004 171.197212,47.2575846 106.677492,47.2575846 C38.857368,47.2575846 0,37.8961925 0,37.8961925 L0,37.8961925 L0,0 L549.883978,0 Z" id="Combined-Shape"></path>
                </g>
            </g>
        </g>
    </g>
</svg>