<?xml version="1.0" encoding="utf-8"?>
<!-- Generator: Adobe Illustrator 25.3.1, SVG Export Plug-In . SVG Version: 6.00 Build 0)  -->
<svg version="1.1" id="Layer_1" xmlns="http://www.w3.org/2000/svg" xmlns:xlink="http://www.w3.org/1999/xlink" x="0px" y="0px"
	 viewBox="0 0 550 31" style="enable-background:new 0 0 550 31;" xml:space="preserve">
<style type="text/css">
	.st0{fill-rule:evenodd;clip-rule:evenodd;fill:#9EF3C7;}
</style>
<g id="_x30_0_x5F_Design-System">
	<g id="Design-System-Images" transform="translate(-54.000000, -1580.000000)">
		<g id="SectionDividers" transform="translate(34.000000, 1294.000000)">
			<g id="mint-divider" transform="translate(20.000000, 286.000000)">
				<path id="Fill-1" class="st0" d="M0,0h550v26.1c0,0-38.9-9.3-106.7-9.3c-64.5,0-87.6,18.6-174.2,13.2
					c-39.5-2.4-72.2-12.5-142.5-4.9C54.8,32.9,0,18.6,0,18.6V0z"/>
			</g>
		</g>
	</g>
</g>
</svg>
