<svg id="images-icon" data-name="icon-images" xmlns="http://www.w3.org/2000/svg" viewBox="0 0 96 96" >
	<title>Images</title>
	<g>
		<path d="M75.5,27.4h-3.4v-3.4c0-1.9-1.5-3.4-3.4-3.4H20.5c-1.9,0-3.4,1.5-3.4,3.4v41.2c0,1.9,1.5,3.4,3.4,3.4h3.4
			v3.4c0,1.9,1.5,3.4,3.4,3.4h48.1c1.9,0,3.4-1.5,3.4-3.4V30.8C78.9,28.9,77.4,27.4,75.5,27.4z M23.9,30.8v34.4h-3.4l0,0V23.9l0,0
			h48.1l0,0v3.4H27.4C25.5,27.4,23.9,28.9,23.9,30.8z M75.5,72.1L75.5,72.1l-48.1,0l0,0V30.8l0,0h48.1l0,0V72.1z"/>
		<path d="M68.6,39.4c0,2.8-2.3,5.2-5.2,5.2c-2.8,0-5.2-2.3-5.2-5.2c0-2.8,2.3-5.2,5.2-5.2
			C66.3,34.2,68.6,36.6,68.6,39.4z"/>
		<polygon points="72.1,68.6 30.8,68.6 30.8,61.8 42.8,41.1 56.6,58.3 60,58.3 72.1,48 	"/>
	</g>
</svg>
