<svg id="external-icon" data-name="icon-external" xmlns="http://www.w3.org/2000/svg" viewBox="0 0 14 12">
  <title>External URL</title>
  <path d="M11,7.25v2.5A2.25,2.25,0,0,1,8.75,12H2.25a2.17,2.17,0,0,1-1.59-.66A2.17,2.17,0,0,1,0,9.75V3.25A2.15,2.15,0,0,1,.66,1.67,2.23,2.23,0,0,1,2.25,1H7.76a.28.28,0,0,1,.17.07A.29.29,0,0,1,8,1.25v.5a.27.27,0,0,1-.07.18A.23.23,0,0,1,7.76,2H2.25a1.19,1.19,0,0,0-.88.37A1.25,1.25,0,0,0,1,3.25v6.5a1.2,1.2,0,0,0,.38.88,1.31,1.31,0,0,0,.88.38h6.5a1.17,1.17,0,0,0,.88-.38A1.21,1.21,0,0,0,10,9.75V7.25a.24.24,0,0,1,.07-.18A.23.23,0,0,1,10.25,7h.5a.25.25,0,0,1,.19.07A.29.29,0,0,1,11,7.25ZM14,.5v4a.51.51,0,0,1-.15.37A.44.44,0,0,1,13.5,5a.64.64,0,0,1-.35-.14L11.78,3.47l-5.1,5.1a.22.22,0,0,1-.18.08.19.19,0,0,1-.18-.08l-.89-.88a.25.25,0,0,1,0-.37l5.1-5.09L9.14.85A.5.5,0,0,1,9,.5.54.54,0,0,1,9.14.15.5.5,0,0,1,9.51,0h4a.47.47,0,0,1,.35.15A.61.61,0,0,1,14,.5Z"/>
</svg>
