<svg id="download-icon" data-name="icon-download" xmlns="http://www.w3.org/2000/svg" viewBox="0 0 70.65 60.04">
  <title>Download</title>
  <path d="M68.36,40.82a4.39,4.39,0,0,1,1.91,2.26,4,4,0,0,1,.21,2.83l-2,10.88A3.69,3.69,0,0,1,67,59.12a4.73,4.73,0,0,1-2.82.92H6.49a4.73,4.73,0,0,1-2.82-.92,3.74,3.74,0,0,1-1.56-2.33l-2-10.88a4.34,4.34,0,0,1,2.25-5.09L13.56,33.2h6.91l-12,9.18H21a.91.91,0,0,1,.85.56l2.82,7.77H45.9l2.83-7.77c.37-.37.66-.56.85-.56H62.15l-12-9.18h6.92ZM53.67,18.08,35.31,35.31,16.94,18.08H28.67V0H42.09V18.08Z" />
</svg>
