<svg version="1.1" id="news-icon" data-name="icon-news"  xmlns="http://www.w3.org/2000/svg"  viewBox="0 0 70 70">
<title>News</title>
<g>
	<path d="M63.7,9.6h-56c-2.2,0-5.1,0.2-5.1,4.3v42c0,2.2,0.6,3.7,4.1,3.7h57c2.2,0,2.9-1.4,2.9-3.7v-42C66.6,11.7,65.9,9.6,63.7,9.6
		z M62.6,13.6v5h-56v-5H62.6z M6.6,55.6v-35h56v35H6.6z"/>
	<path d="M29,24.6H13.2c-2.2,0-2.6,1-2.6,3.2v21c0,1.1,0.5,1.8,1.6,1.8H29c1.1,0,1.6,0.3,1.6-0.8v-22C30.6,26.6,31,24.6,29,24.6z
		 M28.6,48.6h-16v-22h16V48.6z"/>
	<path d="M33.4,26.6h12c0.6,0,1-0.4,1-1s-0.4-1-1-1h-12c-0.6,0-1,0.4-1,1S32.9,26.6,33.4,26.6z"/>
	<path d="M58.4,24.6h-9c-0.6,0-1,0.4-1,1s0.4,1,1,1h9c0.6,0,1-0.4,1-1S59,24.6,58.4,24.6z"/>
	<path d="M33.4,31.6h6c0.6,0,1-0.4,1-1s-0.4-1-1-1h-6c-0.6,0-1,0.4-1,1S32.9,31.6,33.4,31.6z"/>
	<path d="M14.4,17.6h1c0.6,0,1-0.4,1-1s-0.4-1-1-1h-1c-0.6,0-1,0.4-1,1S13.9,17.6,14.4,17.6z"/>
	<path d="M53.4,17.6h1c0.6,0,1-0.4,1-1s-0.4-1-1-1h-1c-0.6,0-1,0.4-1,1S52.9,17.6,53.4,17.6z"/>
	<path d="M50.4,29.6h-7c-0.6,0-1,0.4-1,1s0.4,1,1,1h7c0.6,0,1-0.4,1-1S51,29.6,50.4,29.6z"/>
	<path d="M33.4,36.6h10c0.6,0,1-0.4,1-1s-0.4-1-1-1h-10c-0.6,0-1,0.4-1,1S32.9,36.6,33.4,36.6z"/>
	<path d="M46.4,35.6c0,0.6,0.4,1,1,1h7c0.6,0,1-0.4,1-1s-0.4-1-1-1h-7C46.9,34.6,46.4,35,46.4,35.6z"/>
	<path d="M58.4,29.6h-4c-0.6,0-1,0.4-1,1s0.4,1,1,1h4c0.6,0,1-0.4,1-1S59,29.6,58.4,29.6z"/>
	<path d="M33.4,44.6h8c0.6,0,1-0.4,1-1s-0.4-1-1-1h-8c-0.6,0-1,0.4-1,1S32.9,44.6,33.4,44.6z"/>
	<path d="M58.4,42.6h-13c-0.6,0-1,0.4-1,1s0.4,1,1,1h13c0.6,0,1-0.4,1-1S59,42.6,58.4,42.6z"/>
	<path d="M48.4,47.6h-15c-0.6,0-1,0.4-1,1s0.4,1,1,1h15c0.6,0,1-0.4,1-1S49,47.6,48.4,47.6z"/>
	<path d="M58.4,47.6h-6c-0.6,0-1,0.4-1,1s0.4,1,1,1h6c0.6,0,1-0.4,1-1S59,47.6,58.4,47.6z"/>
</g>
<rect x="2.6" y="9.6" width="63.9" height="4"/>
</svg>
