<?xml version="1.0" encoding="utf-8"?>
<!-- Generator: Adobe Illustrator 25.3.1, SVG Export Plug-In . SVG Version: 6.00 Build 0)  -->
<svg version="1.1" id="Layer_1" xmlns="http://www.w3.org/2000/svg" xmlns:xlink="http://www.w3.org/1999/xlink" x="0px" y="0px"
	 viewBox="0 0 84 84" style="enable-background:new 0 0 84 84;" xml:space="preserve">
<style type="text/css">
	.st0{fill:#FFFFFF;}
	.st1{fill:none;stroke:#FFFFFF;stroke-width:2;}
</style>
<g id="_x30_0_x5F_Design-System">
	<g id="Design-System-Style" transform="translate(-646.000000, -2347.000000)">
		<g id="Icons" transform="translate(0.000000, 1373.000000)">
			<g id="MemberPricing" transform="translate(630.000000, 885.000000)">
				<g id="Free" transform="translate(16.000000, 89.000000)">
					<path class="st0" d="M21.3,48v-7.2H27v-3.1h-5.7v-4.2h5.9v-3.1h-9.4V48H21.3z M32.7,48v-7.1c0-2.3,1.1-3.3,3.3-3.3h0.1v-3.2
						c-2,0-3.1,1-3.6,2.1v-1.7h-3V48H32.7z M44,48.4c1.4,0,2.7-0.4,3.8-1.2c1.1-0.7,2-1.8,2.7-3.3h-3.2c-0.6,1.1-1.6,1.8-3.2,1.8
						c-1.8,0-3.7-1.2-3.8-3.3h10.6c0.3-2.3-0.3-4.4-1.9-6c-1.2-1.3-3-2-4.9-2c-4,0-6.9,3.3-6.9,7C37,45.1,40,48.4,44,48.4z
						 M47.7,40.1h-7.5c0.1-1.3,1.4-3,3.7-3C46.3,37.1,47.6,38.8,47.7,40.1z M59.3,48.4c1.4,0,2.7-0.4,3.8-1.2c1.1-0.7,2-1.8,2.7-3.3
						h-3.2c-0.6,1.1-1.6,1.8-3.2,1.8c-1.8,0-3.7-1.2-3.8-3.3h10.6c0.3-2.3-0.3-4.4-1.9-6c-1.2-1.3-3-2-4.9-2c-4,0-6.9,3.3-6.9,7
						C52.4,45.1,55.3,48.4,59.3,48.4z M63.1,40.1h-7.5c0.1-1.3,1.4-3,3.7-3C61.6,37.1,62.9,38.8,63.1,40.1z"/>
					<circle id="Oval" class="st1" cx="42" cy="42" r="41"/>
				</g>
			</g>
		</g>
	</g>
</g>
</svg>
