<?xml version="1.0" standalone="no"?>
<!DOCTYPE svg PUBLIC "-//W3C//DTD SVG 1.1//EN" "http://www.w3.org/Graphics/SVG/1.1/DTD/svg11.dtd" >
<svg xmlns="http://www.w3.org/2000/svg">
<metadata>
<json>
<![CDATA[
{
	"fontFamily": "icomoon",
	"majorVersion": 1,
	"minorVersion": 0,
	"version": "Version 1.0",
	"fontId": "icomoon",
	"psName": "icomoon",
	"subFamily": "Regular",
	"fullName": "icomoon",
	"description": "Font generated by IcoMoon."
}
]]>
</json>
</metadata>
<defs>
<font id="icomoon" horiz-adv-x="1024">
<font-face units-per-em="1024" ascent="960" descent="-64" />
<missing-glyph horiz-adv-x="1024" />
<glyph unicode="&#x20;" horiz-adv-x="512" d="" />
<glyph unicode="&#xe900;" glyph-name="bear-60x60" data-tags="bear-60x60" d="M503.467 209.92c-90.453 0-165.547 73.387-165.547 165.547 0 73.387 47.787 136.533 114.347 157.013 3.413-23.893 23.893-42.667 49.493-42.667s46.080 18.773 49.493 42.667c66.56-20.48 114.347-83.627 114.347-157.013 1.707-92.16-71.68-165.547-162.133-165.547zM923.307 440.32c3.413 71.68-15.36 139.947-47.787 201.387 27.307 22.187 44.373 54.613 44.373 92.16 0 66.56-52.907 119.467-119.467 119.467-39.253 0-73.387-18.773-93.867-46.080-58.027 27.307-122.88 46.080-192.853 46.080-71.68 0-138.24-17.067-196.267-49.493-22.187 29.013-56.32 47.787-95.573 47.787-66.56 0-119.467-52.907-119.467-119.467 0-39.253 18.773-73.387 47.787-95.573-30.72-58.027-47.787-124.587-47.787-194.56 0-225.28 186.027-411.307 413.013-413.013 215.040-1.707 421.547 199.68 407.893 411.307z" />
<glyph unicode="&#xe901;" glyph-name="brain-60x60" data-tags="brain-60x60" d="M994.987 455.68c0 52.907-27.307 98.987-68.267 124.587 6.827 13.653 10.24 30.72 10.24 47.787 0 61.44-49.493 109.227-109.227 109.227-13.653 0-25.6-1.707-37.547-6.827-8.533 63.147-61.44 112.64-128 112.64-44.373 0-83.627-22.187-105.813-56.32-17.067 27.307-46.080 44.373-80.213 44.373-25.6 0-47.787-10.24-64.853-25.6-17.067 27.307-47.787 44.373-81.92 44.373-52.907 0-93.867-40.96-95.573-93.867-15.36 8.533-32.427 13.653-51.2 13.653-61.44 0-110.933-49.493-110.933-110.933 0-30.72 13.653-59.733 34.133-80.213-44.373-23.893-71.68-69.973-71.68-122.88 0-81.92 66.56-148.48 148.48-148.48 39.253 0 75.093 15.36 100.693 40.96 17.067-25.6 46.080-42.667 80.213-42.667 20.48 0 39.253 6.827 56.32 18.773 3.413-78.507 66.56-139.947 145.067-139.947 13.653 0 27.307 1.707 40.96 5.12 0 0 0 0 0 0s0-1.707 0-1.707c0 0 0-1.707 0-1.707s0-1.707 0-1.707c0 0 0-1.707 0-1.707s0-1.707 0-1.707c0 0 0-1.707 0-1.707s0-1.707 0-1.707c0 0 0-1.707 0-1.707s0-1.707 0-1.707c0 0 0-1.707 0-1.707s0-1.707 0-1.707c0 0 0-1.707 0-1.707s0 0 0-1.707c0 0 0 0 0-1.707 0 0 0 0 0-1.707 0 0 0 0 0-1.707 0 0 0 0 0-1.707 0 0 0 0 0-1.707 0 0 0 0 0-1.707 0 0 0 0 0-1.707 0 0 0 0 0-1.707 0 0 0 0 0-1.707 0 0 0 0 0-1.707 0 0 0 0 0-1.707 0 0 0 0 0-1.707 0 0 0 0 0-1.707 0 0 0 0 0-1.707 0 0 0 0 0-1.707 0 0 0 0 0-1.707 0 0 0 0 0-1.707 0 0 0 0 0-1.707 0 0 0 0 0-1.707 0 0 0 0 0-1.707 0 0 0 0 0-1.707 0 0 0 0 0-1.707 0 0 0 0 0-1.707 0 0 0 0 0-1.707 0 0 0 0 0-1.707 0 0 0 0 0-1.707 0 0 0 0 0-1.707 0 0 0 0 0-1.707 0 0 0 0 0-1.707 0 0 0 0 0-1.707 0 0 0 0 0-1.707 0 0 0 0 0-1.707 0 0 0 0 0-1.707 0 0 0 0 0-1.707 0 0 0 0 0-1.707 0 0 0 0 0-1.707 0 0 0 0 0-1.707 0 0 0 0 0-1.707 0 0 0 0 0-1.707 0 0 0 0 0-1.707 0 0 0 0 0-1.707 0 0 0 0 0-1.707 0 0 0 0 0-1.707 0 0 0 0 0-1.707 0 0 0 0 0-1.707 0 0 0 0 0-1.707 0 0 0 0 0-1.707 0 0 0 0 0-1.707 0 0 0 0 0-1.707 0 0 0 0 0-1.707 0 0 0 0 0-1.707 0 0 0 0 0-1.707 0 0 0 0 0-1.707 0 0 0 0 0-1.707 0 0 0 0 0-1.707 0 0 0 0 0-1.707 0 0 0 0 0-1.707 0 0 0 0 0-1.707 0 0 0 0 0-1.707 0 0 0 0 0-1.707 0 0 0 0 0-1.707 0 0 0 0 0-1.707 0 0 0 0 0-1.707 0 0 0 0 0-1.707 0 0 0 0 0-1.707 0 0 0 0 0-1.707 0 0 0 0 0-1.707 0 0 0 0 0-1.707 0 0 0 0 0-1.707 0 0 0 0 0-1.707 0 0 0 0 0-1.707 0 0 0 0 0-1.707 0 0 0 0 0-1.707 0 0 0 0 0-1.707 0 0 0 0 0 0s0 0 0-1.707c0 0 0 0 0-1.707 0 0 0 0 0 0s0 0 0 0 0 0 0 0 0 0 0 0 0 0 0 0 0 0 0 0 0 0 0 0 0 0 0 0 0 0 0 0 0 0 0 0 0 0 0 0 0 0 0 0 0 0 0 0 0 0 0 0 0 0 0 0 0 0 0 0 0 0 0 0 0 0 0 0 0 0 0 0 0 0 0 0 0 0 0 0 0 0 0 0 0 0 0 0 0 0 0 0 0 0 0 0 0 0 0 0 0 0 0 0 0 0 0 0 0 0 0 0 0 0 0 0 0 0 0 0 0 0 0 0 0 0 0 0 0 0 0 0 0 0 0 0 0 0 0 0 0 0 0 0 0 0 0 0 0 0 0 0 0 0 0 0 0 0 0 0 0 0 0 0 0 0 0 0 0 0 0 0 0 0 0 0 0 0 0 0 0 0 0 0 0 0 0 0v0c0 0 0 0 0 0s0 0 0 0v0c0 0 0 0 0 0s0 0 0 0 0 0 0 0 0 0 0 0 0 0 0 0 0 0 0 0 0 0 0 0 0 0 0 0 0 0 0 0 0 0 0 0 0 0 0 0 0 0 0 0 0 0 0 0 0 0 0 0 0 0 0 0 0 0 0 0 0 0 0 0 0 0 0 0 0 0 0 0 0 0 0 0 0 0 0 0 0 0 0 0 0 0 0 0 0 0 0 0 0 0 0 0 0 0 0 0 0 0 0 0v0c0 0 0 0 0 0s0 0 0 0 0 0 0 0 0 0 0 0 0 0 0 0 0 0 0 0 0 0 0 0 0 0 0 0 0 0 0 0 0 0 0 0 0 0 0 0 0 0 1.707 0c0 0 0 0 0 0 1.707 0 1.707 0 3.413 0 0 0 0 0 0 0s0 0 0 0c1.707 0 3.413 0 3.413 1.707 1.707 0 3.413 1.707 5.12 1.707 0 0 0 0 0 0s0 0 0 0c1.707 0 3.413 1.707 5.12 1.707s1.707 1.707 3.413 1.707c1.707 0 1.707 1.707 3.413 1.707 3.413 1.707 5.12 3.413 8.533 5.12 3.413 3.413 6.827 6.827 8.533 8.533 0 0 0 1.707 0 1.707s0 0 0 0 0 0 0 0 0 0 0 1.707v0c0 0 0 0 0 0s0 0 0 0 0 0 0 0 0 0 0 0 0 0 0 0 0 0 0 0 0 0 0 0 0 0 0 0 0 0 0 0 0 0 0 0 0 0 0 0 0 0 0 0v0c0 0 0 0 0 0s0 0 0 0 0 0 0 0 0 0 0 0 0 0 0 0v0c0 0 0 0 0 0v0c0 0 0 0 0 0s0 0 0 0 0 0 0 0 0 0 0 0 0 0 0 0 0 0 0 0 0 0 0 0 0 0 0 0 0 0 0 0 0 0 0 0 0 0 0 0 0 0 0 0 0 0 0 0 0 0 0 0 0 0 0 0 0 0 0 0 0 0 0 0 0 0 0 0 0 0 0 0 0 0 0 0 0 0 0 0 0 0 0 0 0 0 0 0 0 0 0 0 0 0 0 0 0 0 0 0 0 0 0 0 0 0 0 0 0 0 0 0 0 0 0 0 0 0 0 0 0 0 0 0 0 0 0 0 0 0 0 0 0 0 0 0 0 0 0 0 0 0 0 0 0 0 0 0 0 0 0 0 0 0 0 0 0 0 0 0 0 0 0 0 0 0 0 0 0 0 0 0 0 0 0 0 0 0 0 0 0 0 0 0 0 0 0 0 0 0 0 0 0 0 0 0 0 0 0 0 0 0 0 0 0 0 0 0 0 0 0 0 0 0 0 0 0 0 0 0 0 0 0 1.707c0 0 0 0 0 1.707 0 0 0 0 0 0s0 0 0 0 0 0 0 0 0 0 0 0 0 0 0 0 0 0 0 0 0 0 0 0 0 0 0 0 0 0 0 0 0 0 0 0 0 0 0 1.707c0 0 0 0 0 1.707 0 0 0 0 0 1.707 0 0 0 0 0 1.707 0 0 0 0 0 1.707 0 0 0 0 0 1.707 0 0 0 0 0 1.707 0 0 0 0 0 1.707 0 0 0 0 0 1.707 0 0 0 0 0 1.707 0 0 0 0 0 1.707 0 0 0 0 0 1.707 0 0 0 0 0 1.707 0 0 0 0 0 1.707 0 0 0 0 0 1.707 0 0 0 0 0 1.707 0 0 0 0 0 1.707 0 0 0 0 0 1.707 0 0 0 0 0 1.707 0 0 0 0 0 1.707 0 0 0 0 0 1.707 0 0 0 0 0 1.707 0 0 0 0 0 1.707 0 0 0 0 0 1.707 0 0 0 0 0 1.707 0 0 0 0 0 1.707 0 0 0 0 0 1.707 0 0 0 0 0 1.707 0 0 0 0 0 1.707 0 0 0 0 0 1.707 0 0 0 0 0 1.707 0 0 0 0 0 1.707 0 0 0 0 0 1.707 0 0 0 0 0 1.707 0 0 0 0 0 1.707 0 0 0 0 0 1.707 0 0 0 0 0 1.707 0 0 0 0 0 1.707 0 0 0 0 0 1.707 0 0 0 0 0 1.707 0 0 0 0 0 1.707 0 0 0 0 0 1.707 0 0 0 0 0 1.707 0 0 0 0 0 1.707 0 0 0 0 0 1.707 0 0 0 0 0 1.707 0 0 0 0 0 1.707 0 0 0 0 0 0s0 0 0 1.707c0 0 0 0 0 1.707 0 0 0 0 0 1.707 0 0 0 0 0 1.707 0 0 0 0 0 1.707 0 0 0 0 0 1.707 0 0 0 0 0 1.707 0 0 0 0 0 1.707 0 0 0 0 0 1.707 0 0 0 0 0 1.707 0 0 0 0 0 1.707 0 0 0 0 0 1.707 0 0 0 0 0 1.707 0 0 0 0 0 1.707 0 0 0 0 0 1.707 0 0 0 0 0 1.707 0 0 0 0 0 1.707 0 0 0 0 0 1.707 0 0 0 0 0 1.707 0 0 0 0 0 1.707 0 0 0 0 0 1.707 0 0 0 0 0 1.707 0 0 0 1.707 0 1.707s0 1.707 0 1.707c0 0 0 1.707 0 1.707s0 1.707 0 1.707c0 0 0 1.707 0 1.707s0 1.707 0 1.707c0 0 0 1.707 0 1.707s0 1.707 0 1.707c0 0 0 1.707 0 1.707s0 1.707 0 1.707c0 0 0 1.707 0 1.707s0 1.707 0 1.707c0 0 0 1.707 0 1.707s0 1.707 0 1.707c0 0 0 0 0 1.707 0 0 0 0 0 1.707 0 0 0 0 0 1.707 0 0 0 0 0 1.707 0 0 0 0 0 1.707 0 0 0 0 0 1.707 0 0 0 0 0 1.707 0 0 0 0 0 0 25.6-20.48 56.32-30.72 90.453-30.72 78.507 0 143.36 63.147 146.773 141.653 76.8 17.067 109.227 66.56 109.227 124.587z" />
<glyph unicode="&#xe902;" glyph-name="chat-60x60" data-tags="chat-60x60" d="M994.987 165.546c0 0-95.573 68.267-167.253 121.173 20.48 47.787 30.72 100.693 27.307 151.893 10.24 218.453-175.787 413.013-409.6 414.72-226.987 1.707-411.307-184.32-411.307-411.307 0-225.28 186.027-411.307 413.013-413.013 116.053-1.707 228.693 56.32 307.2 143.36l240.64-6.827z" />
<glyph unicode="&#xe903;" glyph-name="heart-60x60" data-tags="heart-60x60" d="M508.587 622.933c18.773 75.093 49.493 133.12 88.747 172.373s88.747 58.027 145.067 58.027c66.56 0 121.173-25.6 162.133-76.8s61.44-117.76 61.44-201.387c0-73.387-13.653-133.12-42.667-177.493s-83.627-88.747-163.84-129.707l-10.24-5.12c-131.413-69.973-211.627-146.773-240.64-232.107-29.013 85.333-109.227 163.84-240.64 232.107-5.12 3.413-8.533 5.12-11.947 5.12-80.213 42.667-134.827 85.333-163.84 129.707-27.307 42.667-40.96 102.4-40.96 177.493 0 83.627 20.48 151.893 61.44 201.387 40.96 51.2 95.573 76.8 162.133 76.8 56.32 0 105.813-18.773 145.067-58.027s69.973-97.28 88.747-172.373z" />
<glyph unicode="&#xe904;" glyph-name="smiley-60x60" data-tags="smiley-60x60" d="M754.347 331.093c-39.253-81.92-143.36-145.067-238.933-145.067 0 0-1.707 0-1.707 0-100.693 1.707-203.093 63.147-240.64 146.773-8.533 17.067 0 37.547 17.067 46.080s37.547 0 46.080-17.067c27.307-59.733 104.107-104.107 179.2-105.813 0 0 1.707 0 1.707 0 68.267 0 150.187 47.787 177.493 105.813 8.533 17.067 29.013 23.893 46.080 15.36 15.36-8.533 22.187-29.013 13.653-46.080v0zM324.267 592.213c0 20.48 17.067 37.547 37.547 37.547s37.547-17.067 37.547-37.547v-80.213c0-20.48-17.067-37.547-37.547-37.547s-37.547 17.067-37.547 37.547v80.213zM628.053 592.213c0 20.48 17.067 37.547 37.547 37.547s37.547-17.067 37.547-37.547v-80.213c0-20.48-17.067-37.547-37.547-37.547s-37.547 17.067-37.547 37.547v80.213zM923.307 440.32c10.24 216.747-175.787 411.307-409.6 413.013-226.987 1.707-411.307-184.32-411.307-411.307 0-225.28 186.027-411.307 413.013-413.013 215.040-1.707 421.547 199.68 407.893 411.307v0z" />
<glyph unicode="&#xe905;" glyph-name="spark-60x60" data-tags="spark-60x60" d="M820.907 424.96h-203.093c-1.707-6.827-3.413-11.947-5.12-18.773l177.493-102.4c8.533-5.12 11.947-15.36 6.827-23.893s-15.36-11.947-23.893-6.827l-177.493 102.4c-3.413-5.12-8.533-8.533-13.653-13.653l102.4-177.493c5.12-8.533 1.707-18.773-6.827-23.893s-18.773-1.707-23.893 6.827l-102.4 177.493c-5.12-1.707-11.947-5.12-18.773-5.12v-204.8c0-10.24-8.533-17.067-17.067-17.067-10.24 0-17.067 8.533-17.067 17.067v203.093c-6.827 1.707-11.947 1.707-18.773 5.12l-102.4-177.493c-5.12-8.533-15.36-11.947-23.893-6.827s-11.947 15.36-6.827 23.893l102.4 175.787c-5.12 3.413-10.24 8.533-13.653 13.653l-175.787-102.4c-8.533-5.12-18.773-1.707-23.893 6.827s-1.707 18.773 6.827 23.893l174.080 100.693c-3.413 6.827-5.12 11.947-6.827 18.773h-203.093c-10.24 0-17.067 8.533-17.067 17.067 0 10.24 8.533 17.067 17.067 17.067h201.387c1.707 6.827 1.707 13.653 5.12 20.48l-174.080 100.693c-8.533 5.12-11.947 15.36-6.827 23.893s15.36 11.947 23.893 6.827l172.373-100.693c5.12 5.12 8.533 10.24 15.36 15.36l-100.693 174.080c-5.12 8.533-1.707 18.773 6.827 23.893s18.773 1.707 23.893-6.827l98.987-172.373c6.827 1.707 13.653 5.12 20.48 5.12v204.8c0 10.24 8.533 17.067 17.067 17.067 10.24 0 17.067-8.533 17.067-17.067v-201.387c6.827-1.707 13.653-3.413 20.48-5.12l102.4 174.080c5.12 8.533 15.36 11.947 23.893 6.827s11.947-15.36 6.827-23.893l-100.693-174.080c5.12-5.12 10.24-8.533 13.653-13.653l175.787 100.693c8.533 5.12 18.773 1.707 23.893-6.827s1.707-18.773-6.827-23.893l-175.787-100.693c1.707-6.827 3.413-11.947 5.12-18.773h203.093c10.24 0 17.067-8.533 17.067-17.067s-5.12-20.48-15.36-20.48zM923.307 440.32c10.24 216.747-175.787 411.307-409.6 413.013-226.987 1.707-411.307-184.32-411.307-411.307 0-225.28 186.027-411.307 413.013-413.013 215.040-1.707 421.547 199.68 407.893 411.307z" />
<glyph unicode="&#xe906;" glyph-name="video-60x60" data-tags="video-60x60" d="M512-68.267c-281.6 0-512 230.4-512 512s230.4 512 512 512 512-230.4 512-512-230.4-512-512-512zM512 921.6c-262.827 0-477.867-215.040-477.867-477.867s215.040-477.867 477.867-477.867 477.867 215.040 477.867 477.867-215.040 477.867-477.867 477.867zM674.133 476.16l-245.76 145.067c-20.48 11.947-51.2 0-51.2-29.013v-290.133c0-25.6 29.013-42.667 51.2-29.013l245.76 145.067c22.187 13.653 22.187 44.373 0 58.027z" />
<glyph unicode="&#xe907;" glyph-name="video-hover-60x60" data-tags="video-hover-60x60" d="M674.133 476.16l-245.76 145.067c-20.48 11.947-51.2 0-51.2-29.013v-290.133c0-25.6 29.013-42.667 51.2-29.013l245.76 145.067c22.187 13.653 22.187 44.373 0 58.027z" />
<glyph unicode="&#xe908;" glyph-name="menu-46x46" data-tags="menu-46x46" d="M231.513 732.382h560.974c31.165 0 55.652-24.487 55.652-55.652s-24.487-55.652-55.652-55.652h-560.974c-31.165 0-55.652 24.487-55.652 55.652s24.487 55.652 55.652 55.652zM231.513 494.191h560.974c31.165 0 55.652-24.487 55.652-55.652s-24.487-55.652-55.652-55.652h-560.974c-31.165 0-55.652 24.487-55.652 55.652s24.487 55.652 55.652 55.652zM231.513 253.774h560.974c31.165 0 55.652-24.487 55.652-55.652s-24.487-55.652-55.652-55.652h-560.974c-31.165 0-55.652 24.487-55.652 55.652s24.487 55.652 55.652 55.652z" />
<glyph unicode="&#xe909;" glyph-name="close-menu-46x46" data-tags="close-menu-46x46" d="M607.722 445.217l200.348-200.348c11.13-11.13 11.13-28.939 0-42.296l-55.652-55.652c-11.13-11.13-28.939-11.13-42.296 0l-200.348 200.348-200.348-200.348c-11.13-11.13-28.939-11.13-42.296 0l-55.652 55.652c-11.13 11.13-11.13 28.939 0 42.296l200.348 200.348-200.348 200.348c-11.13 11.13-11.13 28.939 0 42.296l55.652 55.652c11.13 11.13 28.939 11.13 42.296 0l200.348-200.348 200.348 200.348c11.13 11.13 28.939 11.13 42.296 0l55.652-55.652c11.13-11.13 11.13-28.939 0-42.296l-200.348-200.348z" />
<glyph unicode="&#xe90a;" glyph-name="apple-82x82" data-tags="apple-82x82" d="M385.873 889.132c32.468 0 61.19-7.493 86.166-21.229 32.468-18.732 57.444-48.702 74.927-88.663 1.249-2.498 2.498-4.995 3.746-9.99v0l6.244 7.493c16.234 18.732 34.966 36.215 54.946 51.2 4.995 3.746 9.99 4.995 16.234 3.746s11.239-3.746 14.985-8.741c3.746-4.995 4.995-9.99 3.746-16.234s-3.746-11.239-8.741-14.985c-63.688-47.454-87.415-101.151-97.405-137.366 0-1.249-1.249-6.244-1.249-9.99 4.995 1.249 8.741 3.746 9.99 3.746 28.722 11.239 57.444 22.478 92.41 23.727v0h3.746c29.971 0 59.941-6.244 87.415-19.98 12.488-6.244 23.727-12.488 33.717-21.229 12.488-7.493 74.927-53.698 92.41-136.117v0-1.249c0 0 0 0 0-1.249v-1.249c4.995-18.732 31.22-137.366-27.473-268.488-1.249-4.995-4.995-11.239-8.741-19.98-19.98-44.956-43.707-84.917-71.18-118.634-18.732-23.727-41.21-47.454-72.429-61.19-16.234-7.493-34.966-14.985-56.195-14.985-12.488 0-26.224 2.498-39.961 8.741-4.995 2.498-11.239 4.995-16.234 7.493-9.99 4.995-19.98 8.741-28.722 11.239-7.493 2.498-16.234 2.498-24.976 2.498v0h-1.249c-9.99 0-17.483-1.249-26.224-3.746-9.99-2.498-18.732-7.493-29.971-12.488-4.995-2.498-9.99-4.995-14.985-6.244-13.737-6.244-27.473-8.741-39.961-8.741-21.229 0-38.712 7.493-53.698 14.985-33.717 14.985-56.195 38.712-74.927 62.439-27.473 33.717-51.2 73.678-71.18 118.634-2.498 6.244-6.244 13.737-9.99 23.727-58.693 133.62-28.722 256-23.727 270.985 16.234 78.673 79.922 126.127 92.41 134.868 8.741 7.493 19.98 13.737 32.468 19.98 27.473 12.488 57.444 19.98 87.415 19.98v0h3.746c34.966-1.249 63.688-12.488 92.41-23.727v0l9.99-3.746c1.249 0 3.746-1.249 6.244-2.498 0 2.498 1.249 6.244 1.249 7.493 2.498 12.488 4.995 23.727 8.741 36.215 1.249 1.249 2.498 4.995 3.746 8.741-3.746-1.249-7.493-1.249-9.99-1.249v0h-4.995c-3.746 0-6.244 0-7.493 0-41.21 0-77.424 11.239-106.146 32.468-63.688 47.454-71.18 129.873-71.18 131.122-1.249 9.99 4.995 18.732 14.985 22.478 4.995 1.249 31.22 9.99 64.937 9.99zM383.376 629.385c-23.727 1.249-48.702-4.995-71.18-14.985-9.99-4.995-18.732-9.99-26.224-16.234 0 0-1.249-1.249-2.498-1.249-2.498-1.249-59.941-41.21-74.927-108.644-3.746-12.488-29.971-124.878 22.478-243.512 3.746-8.741 6.244-16.234 8.741-21.229 18.732-42.459 41.21-78.673 64.937-108.644 17.483-22.478 34.966-38.712 56.195-48.702 24.976-11.239 38.712-16.234 61.19-6.244 4.995 2.498 8.741 3.746 13.737 6.244 11.239 4.995 23.727 11.239 36.215 14.985 9.99 2.498 22.478 3.746 36.215 4.995v0 0h1.249c8.741 0 23.727-1.249 36.215-4.995 13.737-3.746 24.976-8.741 37.463-14.985 4.995-2.498 8.741-3.746 13.737-6.244 22.478-9.99 36.215-4.995 59.941 4.995s39.961 27.473 58.693 49.951c24.976 29.971 46.205 67.434 64.937 108.644 3.746 7.493 6.244 13.737 8.741 19.98 54.946 124.878 24.976 238.517 23.727 243.512-14.985 72.429-72.429 109.893-74.927 111.141v0l-1.249 1.249c-7.493 6.244-16.234 11.239-26.224 16.234-21.229 9.99-44.956 16.234-67.434 16.234v0h-3.746c-26.224-1.249-49.951-9.99-77.424-19.98v0l-14.985-6.244c-6.244-2.498-19.98-7.493-22.478-7.493-1.249-1.249-16.234-3.746-28.722 0 0 0-16.234 4.995-22.478 7.493v0l-14.985 6.244c-24.976 7.493-48.702 16.234-74.927 17.483zM686.829 309.698c2.498 11.239 14.985 18.732 26.224 16.234 6.244-1.249 9.99-4.995 13.737-9.99s3.746-11.239 2.498-16.234c-1.249-3.746-17.483-77.424-82.42-146.107-3.746-3.746-9.99-6.244-14.985-6.244 0 0 0 0 0 0-6.244 0-11.239 2.498-14.985 6.244s-6.244 9.99-6.244 14.985c0 6.244 2.498 11.239 6.244 14.985 54.946 59.941 69.932 124.878 69.932 126.127zM450.81 829.19c-23.727 13.737-54.946 18.732-88.663 13.737-1.249 0-2.498 0-4.995 0 0 0-1.249 0-2.498 0 0-2.498 1.249-3.746 1.249-4.995v0-1.249c6.244-22.478 19.98-53.698 48.702-74.927 24.976-18.732 58.693-26.224 99.902-22.478 3.746 0 6.244 1.249 7.493 1.249 0 1.249-1.249 2.498-1.249 3.746v0l1.249 2.498c-12.488 38.712-33.717 66.185-61.19 82.42z" />
<glyph unicode="&#xe90b;" glyph-name="books-82x82" data-tags="books-82x82" d="M583.18 654.361h293.463v89.912h-680.585c-24.976 0-44.956-19.98-44.956-44.956s19.98-44.956 44.956-44.956h189.815v24.976h-52.449c-9.99 0-18.732 8.741-18.732 18.732s8.741 18.732 18.732 18.732h308.449c9.99 0 18.732-8.741 18.732-18.732s-8.741-18.732-18.732-18.732h-58.693v-24.976zM196.059 807.961c-59.941 0-108.644-48.702-108.644-108.644s48.702-108.644 108.644-108.644h189.815v26.224h-189.815c-44.956 0-82.42 37.463-82.42 82.42s37.463 82.42 82.42 82.42h744.273v26.224h-744.273zM583.18 591.922h357.151v26.224h-357.151v-26.224zM87.415 528.234h297.21v26.224h-297.21v-26.224zM422.088 679.337v-197.307l51.2 32.468c6.244 3.746 13.737 3.746 19.98 0l51.2-32.468v197.307h-122.38zM151.102 400.859h681.834c24.976 0 44.956 19.98 44.956 44.956s-19.98 44.956-44.956 44.956h-249.756v-42.459c0-6.244-3.746-13.737-9.99-16.234-6.244-3.746-13.737-2.498-18.732 1.249l-69.932 44.956-69.932-44.956c-6.244-3.746-12.488-3.746-18.732-1.249-6.244 3.746-9.99 9.99-9.99 16.234v42.459h-234.771v-89.912zM196.059 338.42h636.878c59.941 0 108.644 48.702 108.644 108.644s-48.702 108.644-108.644 108.644h-249.756v-26.224h249.756c44.956 0 82.42-37.463 82.42-82.42s-37.463-82.42-82.42-82.42h-745.522v-26.224h108.644zM196.059 237.268c-24.976 0-44.956-19.98-44.956-44.956s19.98-44.956 44.956-44.956h681.834v89.912h-681.834zM196.059 300.956c-59.941 0-108.644-48.702-108.644-108.644s48.702-108.644 108.644-108.644h744.273v26.224h-744.273c-44.956 0-82.42 37.463-82.42 82.42s37.463 82.42 82.42 82.42h744.273v26.224h-744.273zM959.063 46.205h-763.005c-81.171 0-146.107 66.185-146.107 146.107 0 42.459 18.732 81.171 48.702 108.644h-29.971c-9.99 0-18.732 8.741-18.732 18.732v63.688c0 9.99 8.741 18.732 18.732 18.732h44.956v89.912h-44.956c-9.99-1.249-18.732 7.493-18.732 17.483v63.688c0 9.99 8.741 18.732 18.732 18.732h29.971c-29.971 26.224-48.702 64.937-48.702 107.395 0 81.171 64.937 146.107 146.107 146.107h763.005c9.99 0 18.732-8.741 18.732-18.732v-63.688c0-9.99-8.741-18.732-18.732-18.732h-44.956v-89.912h44.956c9.99 0 18.732-8.741 18.732-18.732v-63.688c0-9.99-8.741-18.732-18.732-18.732h-29.971c29.971-26.224 48.702-64.937 48.702-108.644 0-42.459-18.732-81.171-48.702-108.644h29.971c9.99 0 18.732-8.741 18.732-18.732v-63.688c0-9.99-8.741-18.732-18.732-18.732h-44.956v-89.912h44.956c9.99 0 18.732-8.741 18.732-18.732v-63.688c0-7.493-8.741-16.234-18.732-16.234v0z" />
<glyph unicode="&#xe90c;" glyph-name="checklist-82x82" data-tags="checklist-82x82" d="M444.566 961.561c39.961 0 72.429-27.473 81.171-64.937h48.702c9.99 0 18.732-8.741 18.732-18.732v-21.229h159.844c9.99 0 18.732-8.741 18.732-18.732v-484.527c104.898-9.99 186.068-97.405 186.068-204.8 0-113.639-92.41-204.8-204.8-204.8-79.922 0-149.854 46.205-183.571 113.639h-424.585c-9.99 0-18.732 8.741-18.732 18.732v761.756c0 9.99 8.741 18.732 18.732 18.732h159.844v21.229c0 9.99 8.741 18.732 18.732 18.732h39.961c8.741 37.463 41.21 64.937 81.171 64.937zM753.015 315.941c-92.41 0-167.337-74.927-167.337-167.337s74.927-167.337 167.337-167.337c92.41 0 167.337 74.927 167.337 167.337s-74.927 167.337-167.337 167.337zM862.907 234.771c7.493-7.493 7.493-18.732 1.249-26.224l-129.873-137.366c-3.746-3.746-8.741-6.244-13.737-6.244v0c-4.995 0-9.99 2.498-13.737 4.995l-72.429 72.429c-7.493 7.493-7.493 18.732 0 26.224s18.732 7.493 26.224 0l58.693-58.693 116.137 123.629c7.493 8.741 19.98 8.741 27.473 1.249zM304.702 789.229v29.971h-141.112v-724.293h390.868c-4.995 17.483-7.493 34.966-7.493 53.698 0 16.234 1.249 31.22 4.995 46.205h-325.932c-9.99 0-18.732 8.741-18.732 18.732v484.527c0 9.99 8.741 18.732 18.732 18.732h449.561c9.99 0 18.732-8.741 18.732-18.732v-352.156c12.488 3.746 24.976 6.244 38.712 7.493v465.795h-141.112v-29.971c0-9.99-8.741-18.732-18.732-18.732h-249.756c-9.99 0-18.732 7.493-18.732 18.732zM658.107 679.337h-412.098v-445.815h319.688c18.732 42.459 51.2 76.176 92.41 97.405v348.41zM598.166 378.381c9.99 0 18.732-8.741 18.732-18.732s-8.741-18.732-18.732-18.732h-290.966c-9.99 0-18.732 8.741-18.732 18.732s8.741 18.732 18.732 18.732h290.966zM598.166 499.512c9.99 0 18.732-8.741 18.732-18.732s-7.493-18.732-18.732-18.732h-290.966c-9.99 0-18.732 8.741-18.732 18.732s8.741 18.732 18.732 18.732h290.966zM598.166 620.644c9.99 0 18.732-8.741 18.732-18.732s-8.741-18.732-18.732-18.732h-290.966c-9.99 0-18.732 8.741-18.732 18.732s8.741 18.732 18.732 18.732h290.966zM444.566 924.098c-24.976 0-46.205-21.229-46.205-46.205 0-9.99-8.741-18.732-18.732-18.732h-37.463v-51.2h213.541v51.2h-46.205c-9.99 0-18.732 8.741-18.732 18.732 0 24.976-19.98 46.205-46.205 46.205z" />
<glyph unicode="&#xe90d;" glyph-name="braingears-82x82" data-tags="braingears-82x82" d="M763.005 686.829c56.195-42.459 88.663-104.898 89.912-173.58 0-18.732-2.498-49.951-9.99-71.18-3.746-12.488-4.995-66.185 11.239-92.41 3.746-6.244 7.493-11.239 12.488-17.483 7.493-8.741 14.985-18.732 19.98-29.971 6.244-12.488 4.995-22.478 2.498-28.722-4.995-14.985-19.98-22.478-32.468-28.722l-1.249-1.249c1.249-8.741 2.498-18.732 2.498-27.473v-2.498c1.249-9.99-3.746-18.732-11.239-22.478 2.498-9.99-3.746-21.229-13.737-24.976l-6.244-2.498c-1.249-6.244 0-12.488 0-19.98 1.249-23.727 1.249-58.693-38.712-73.678-21.229-8.741-43.707-3.746-59.941 0-7.493 2.498-14.985 3.746-22.478 6.244-16.234 4.995-31.22 8.741-47.454 12.488-4.995-6.244-9.99-12.488-14.985-19.98-26.224-32.468-52.449-66.185-57.444-102.4 0-6.244-3.746-12.488-9.99-16.234-2.498-1.249-6.244-2.498-8.741-2.498-4.995 0-9.99 2.498-13.737 6.244-1.249 1.249-1.249 1.249-2.498 2.498-2.498 3.746-3.746 8.741-2.498 12.488 6.244 47.454 37.463 87.415 66.185 122.38 6.244 7.493 12.488 14.985 17.483 22.478 1.249 3.746 2.498 6.244 4.995 8.741 3.746 3.746 9.99 4.995 14.985 4.995 22.478-3.746 43.707-8.741 63.688-14.985 7.493-2.498 14.985-3.746 22.478-6.244 16.234-4.995 27.473-4.995 37.463-1.249 13.737 4.995 14.985 12.488 14.985 37.463 0 12.488-1.249 26.224 2.498 38.712 1.249 4.995 4.995 9.99 9.99 11.239l4.995 2.498v1.249c-1.249 3.746-1.249 8.741 1.249 12.488 2.498 4.995 6.244 9.99 11.239 12.488-1.249 9.99-2.498 21.229-3.746 31.22-1.249 6.244 2.498 12.488 7.493 16.234s11.239 6.244 16.234 8.741c3.746 1.249 8.741 3.746 11.239 6.244 0 0 0 0 0 0-3.746 7.493-9.99 14.985-16.234 23.727-4.995 6.244-9.99 13.737-14.985 21.229-24.976 38.712-21.229 103.649-14.985 123.629 4.995 14.985 7.493 38.712 7.493 57.444-1.249 73.678-42.459 119.883-74.927 144.859-58.693 44.956-142.361 61.19-218.537 42.459-9.99-2.498-19.98 3.746-22.478 13.737s3.746 19.98 13.737 22.478c87.415 23.727 183.571 4.995 252.254-46.205zM343.415 415.844c9.99-59.941 44.956-114.888 79.922-167.337l7.493-11.239 11.239-16.234c4.995-4.995 6.244-13.737 3.746-19.98-18.732-42.459-42.459-79.922-73.678-112.39-3.746-3.746-8.741-6.244-13.737-6.244s-8.741 1.249-12.488 4.995c-7.493 7.493-7.493 18.732-1.249 26.224 24.976 26.224 46.205 57.444 61.19 92.41l-6.244 9.99c-39.961 59.941-82.42 121.132-93.659 194.81-1.249 9.99 4.995 19.98 14.985 21.229 11.239 1.249 21.229-6.244 22.478-16.234zM483.278 665.6c6.244 0 11.239-3.746 12.488-9.99l6.244-28.722 24.976 14.985c4.995 2.498 11.239 2.498 14.985-1.249l21.229-21.229c3.746-3.746 4.995-9.99 1.249-14.985l-14.985-24.976 28.722-6.244c6.244-1.249 9.99-6.244 9.99-12.488v-31.22c0-6.244-3.746-11.239-9.99-12.488l-28.722-6.244 14.985-24.976c2.498-4.995 2.498-11.239-1.249-14.985l-21.229-21.229c-3.746-3.746-9.99-4.995-14.985-1.249l-24.976 14.985-6.244-28.722c-1.249-6.244-6.244-9.99-12.488-9.99h-31.22c-6.244 0-11.239 3.746-12.488 9.99l-6.244 27.473-24.976-14.985c-4.995-2.498-11.239-2.498-14.985 1.249l-21.229 21.229c-3.746 3.746-4.995 9.99-1.249 14.985l14.985 24.976-28.722 6.244c-6.244 1.249-9.99 6.244-9.99 12.488v31.22c0 6.244 3.746 11.239 9.99 12.488l28.722 6.244-14.985 24.976c-2.498 4.995-2.498 11.239 1.249 14.985l21.229 21.229c3.746 3.746 9.99 4.995 14.985 1.249l24.976-14.985 6.244 28.722c1.249 6.244 6.244 9.99 12.488 9.99h31.22zM473.288 640.624h-11.239l-6.244-26.224c-1.249-3.746-3.746-7.493-8.741-8.741-3.746-1.249-6.244-2.498-9.99-3.746-3.746-2.498-8.741-1.249-12.488 0l-22.478 13.737-7.493-7.493 13.737-22.478c2.498-3.746 2.498-8.741 0-12.488-1.249-2.498-2.498-6.244-3.746-9.99s-4.995-7.493-8.741-8.741l-26.224-6.244v-11.239l26.224-6.244c3.746-1.249 7.493-3.746 8.741-8.741 1.249-3.746 2.498-6.244 3.746-9.99 2.498-3.746 1.249-8.741 0-12.488l-13.737-22.478 7.493-7.493 22.478 13.737c3.746 2.498 8.741 2.498 12.488 0 2.498-1.249 6.244-2.498 9.99-3.746s7.493-4.995 8.741-8.741l6.244-21.229h11.239l6.244 26.224c1.249 3.746 3.746 7.493 8.741 8.741 3.746 1.249 6.244 2.498 9.99 3.746 3.746 2.498 8.741 1.249 12.488 0l22.478-13.737 7.493 7.493-13.737 22.478c-2.498 3.746-2.498 8.741 0 12.488 1.249 2.498 2.498 6.244 3.746 9.99s4.995 7.493 8.741 8.741l26.224 6.244v11.239l-26.224 6.244c-3.746 1.249-7.493 3.746-8.741 8.741-1.249 3.746-2.498 6.244-3.746 9.99-2.498 3.746-1.249 8.741 0 12.488l13.737 22.478-7.493 7.493-22.478-13.737c-3.746-2.498-8.741-2.498-12.488 0-3.746 1.249-6.244 2.498-9.99 3.746s-7.493 4.995-8.741 8.741l-6.244 21.229zM248.507 733.034c6.244 0 11.239-3.746 12.488-9.99l6.244-28.722 24.976 14.985c4.995 2.498 11.239 2.498 14.985-1.249l21.229-21.229c3.746-3.746 4.995-9.99 1.249-14.985l-14.985-24.976 28.722-6.244c6.244-1.249 9.99-6.244 9.99-12.488v-31.22c0-6.244-3.746-11.239-9.99-12.488l-28.722-6.244 14.985-24.976c2.498-4.995 2.498-11.239-1.249-14.985l-21.229-21.229c-3.746-3.746-9.99-4.995-14.985-1.249l-24.976 14.985-6.244-28.722c-1.249-6.244-6.244-9.99-12.488-9.99h-31.22c-6.244 0-11.239 3.746-12.488 9.99l-4.995 27.473-24.976-14.985c-4.995-2.498-11.239-2.498-14.985 1.249l-22.478 21.229c-3.746 3.746-4.995 9.99-1.249 14.985l14.985 24.976-28.722 6.244c-6.244 1.249-9.99 6.244-9.99 12.488v31.22c0 6.244 3.746 11.239 9.99 12.488l28.722 6.244-14.985 24.976c-2.498 4.995-2.498 11.239 1.249 14.985l21.229 21.229c3.746 3.746 9.99 4.995 14.985 1.249l24.976-14.985 6.244 28.722c1.249 6.244 6.244 9.99 12.488 9.99h31.22zM467.044 586.927c22.478 0 42.459-18.732 42.459-42.459 0-22.478-18.732-42.459-42.459-42.459-22.478 0-42.459 18.732-42.459 42.459 1.249 23.727 19.98 42.459 42.459 42.459zM238.517 708.059h-11.239l-6.244-26.224c-1.249-3.746-3.746-7.493-8.741-8.741-3.746-1.249-6.244-2.498-9.99-3.746-3.746-2.498-8.741-1.249-12.488 0l-22.478 13.737-7.493-7.493 13.737-22.478c2.498-3.746 2.498-8.741 0-12.488-1.249-2.498-2.498-6.244-3.746-9.99s-4.995-7.493-8.741-8.741l-23.727-4.995v-11.239l26.224-6.244c3.746-1.249 7.493-3.746 8.741-8.741 1.249-3.746 2.498-6.244 3.746-9.99 2.498-3.746 1.249-8.741 0-12.488l-13.737-22.478 7.493-7.493 22.478 13.737c3.746 2.498 8.741 2.498 12.488 0 2.498-1.249 6.244-2.498 9.99-3.746s7.493-4.995 8.741-8.741l6.244-26.224h11.239l6.244 26.224c1.249 3.746 3.746 7.493 8.741 8.741 3.746 1.249 6.244 2.498 9.99 3.746 3.746 2.498 8.741 1.249 12.488 0l22.478-13.737 7.493 7.493-13.737 22.478c-2.498 3.746-2.498 8.741 0 12.488 1.249 2.498 2.498 6.244 3.746 9.99s4.995 7.493 8.741 8.741l26.224 6.244v11.239l-26.224 6.244c-3.746 1.249-7.493 3.746-8.741 8.741-1.249 3.746-2.498 6.244-3.746 9.99-2.498 3.746-1.249 8.741 0 12.488l13.737 22.478-7.493 7.493-26.224-14.985c-3.746-2.498-8.741-2.498-12.488 0-3.746 1.249-6.244 2.498-9.99 3.746s-7.493 4.995-8.741 8.741l-4.995 26.224zM467.044 561.951c-8.741 0-17.483-7.493-17.483-17.483s7.493-17.483 17.483-17.483c8.741 0 17.483 7.493 17.483 17.483s-7.493 17.483-17.483 17.483zM233.522 653.112c23.727 0 42.459-18.732 42.459-42.459 0-22.478-18.732-42.459-42.459-42.459s-42.459 18.732-42.459 42.459c0 23.727 18.732 42.459 42.459 42.459zM233.522 628.137c-8.741 0-17.483-7.493-17.483-17.483s7.493-17.483 17.483-17.483 16.234 8.741 16.234 18.732-7.493 16.234-16.234 16.234zM382.127 936.585c6.244 0 11.239-3.746 12.488-9.99l6.244-28.722 24.976 14.985c4.995 3.746 11.239 3.746 16.234-1.249l21.229-21.229c3.746-3.746 4.995-9.99 1.249-14.985l-14.985-24.976 28.722-6.244c6.244-1.249 9.99-6.244 9.99-12.488v-31.22c0-6.244-3.746-11.239-9.99-12.488l-28.722-6.244 14.985-24.976c2.498-4.995 2.498-11.239-1.249-14.985l-21.229-21.229c-3.746-3.746-9.99-4.995-14.985-1.249l-24.976 14.985-6.244-28.722c-1.249-6.244-6.244-9.99-12.488-9.99h-31.22c-6.244 0-11.239 3.746-12.488 9.99l-6.244 28.722-24.976-14.985c-4.995-2.498-11.239-2.498-14.985 1.249l-21.229 21.229c-3.746 3.746-4.995 9.99-1.249 14.985l14.985 24.976-28.722 6.244c-6.244 1.249-9.99 6.244-9.99 12.488v31.22c0 6.244 3.746 11.239 9.99 12.488l28.722 6.244-14.985 24.976c-2.498 4.995-2.498 11.239 1.249 14.985l19.98 21.229c3.746 3.746 9.99 4.995 14.985 1.249l24.976-14.985 6.244 28.722c1.249 6.244 6.244 9.99 12.488 9.99h31.22zM372.137 911.61h-11.239l-6.244-26.224c-1.249-3.746-3.746-7.493-8.741-8.741-2.498-1.249-4.995-2.498-8.741-3.746-3.746-2.498-8.741-1.249-12.488 0l-22.478 13.737-7.493-7.493 13.737-22.478c2.498-3.746 2.498-8.741 0-12.488-1.249-3.746-2.498-6.244-3.746-9.99s-4.995-7.493-8.741-8.741l-26.224-6.244v-11.239l26.224-6.244c3.746-1.249 7.493-3.746 8.741-8.741 1.249-3.746 2.498-6.244 3.746-9.99 2.498-3.746 1.249-8.741 0-12.488l-13.737-22.478 7.493-7.493 22.478 13.737c3.746 2.498 8.741 2.498 12.488 0 2.498-1.249 6.244-2.498 9.99-3.746s7.493-4.995 8.741-8.741l6.244-26.224h11.239l6.244 26.224c1.249 3.746 3.746 7.493 8.741 8.741 3.746 1.249 6.244 2.498 9.99 3.746 3.746 2.498 8.741 1.249 12.488 0l22.478-13.737 7.493 7.493-16.234 26.224c-2.498 3.746-2.498 8.741 0 12.488 1.249 2.498 2.498 6.244 3.746 9.99s4.995 7.493 8.741 8.741l26.224 6.244v11.239l-26.224 3.746c-3.746 1.249-7.493 3.746-8.741 8.741-1.249 3.746-2.498 6.244-3.746 9.99-2.498 3.746-1.249 8.741 0 12.488l13.737 22.478-7.493 7.493-22.478-13.737c-3.746-2.498-8.741-2.498-12.488 0-2.498 0-6.244 1.249-8.741 2.498-3.746 1.249-7.493 4.995-8.741 8.741l-6.244 26.224zM367.141 857.912c22.478 0 42.459-18.732 42.459-42.459 0-22.478-18.732-42.459-42.459-42.459s-42.459 18.732-42.459 42.459c0 23.727 18.732 42.459 42.459 42.459zM367.141 832.937c-8.741 0-17.483-7.493-17.483-17.483s7.493-17.483 17.483-17.483c8.741 0 17.483 7.493 17.483 17.483s-8.741 17.483-17.483 17.483z" />
<glyph unicode="&#xe90e;" glyph-name="children-82x82" data-tags="children-82x82" d="M734.283 790.478c69.932 0 126.127-57.444 126.127-126.127v-2.498l46.205 46.205c24.976 24.976 67.434 24.976 92.41 0s24.976-67.434 0-92.41l-137.366-137.366 62.439-256h-63.688v-67.434c0-36.215-27.473-64.937-63.688-64.937 0 0-1.249 0-1.249 0-16.234 0-32.468 6.244-44.956 18.732-7.493 6.244-12.488 14.985-16.234 23.727-8.741-24.976-32.468-42.459-59.941-42.459 0 0-1.249 0-1.249 0-16.234 0-32.468 6.244-44.956 18.732s-19.98 29.971-19.98 47.454v66.185h-63.688l59.941 254.751-92.41 92.41-94.907-94.907v-319.688c0-36.215-27.473-64.937-63.688-64.937 0 0-1.249 0-1.249 0-17.483 0-32.468 6.244-44.956 18.732-7.493 6.244-12.488 14.985-16.234 23.727-8.741-24.976-32.468-42.459-59.941-42.459-17.483 0-33.717 6.244-46.205 18.732s-19.98 29.971-19.98 47.454v319.688l-137.366 138.615c-12.488 12.488-19.98 29.971-19.98 47.454s7.493 33.717 19.98 46.205c24.976 23.727 66.185 23.727 92.41-2.498l46.205-46.205c0 1.249 0 1.249 0 2.498 0 69.932 57.444 126.127 126.127 126.127s126.127-57.444 126.127-126.127v-2.498l46.205 46.205c14.985 14.985 34.966 21.229 54.946 18.732 14.985-1.249 29.971-8.741 41.21-18.732l46.205-46.205c0 1.249 0 1.249 0 2.498 1.249 71.18 57.444 128.624 127.376 128.624zM934.088 680.585l-109.893-109.893c-23.727-23.727-56.195-37.463-89.912-37.463s-66.185 13.737-89.912 37.463l-109.893 109.893c-4.995 4.995-11.239 7.493-18.732 8.741-9.99 1.249-18.732-1.249-24.976-7.493l-109.893-109.893c-23.727-23.727-56.195-37.463-89.912-37.463s-66.185 13.737-89.912 37.463l-109.893 109.893c-11.239 11.239-28.722 11.239-39.961 1.249-4.995-4.995-8.741-12.488-8.741-19.98s2.498-14.985 8.741-21.229l151.102-149.854v-334.673c0-7.493 3.746-16.234 8.741-21.229s12.488-8.741 18.732-7.493c14.985 0 27.473 12.488 27.473 27.473v142.361c0 18.732 14.985 33.717 33.717 33.717s33.717-14.985 33.717-33.717v-142.361c0-7.493 3.746-16.234 8.741-21.229s12.488-8.741 18.732-7.493c14.985 0 27.473 12.488 27.473 27.473v335.922l132.371 131.122 133.62-133.62-54.946-228.527h53.698v-103.649c0-7.493 3.746-16.234 8.741-21.229s12.488-8.741 18.732-7.493c14.985 0 27.473 12.488 27.473 27.473v104.898h66.185v-103.649c0-7.493 3.746-16.234 8.741-21.229s12.488-8.741 18.732-7.493c14.985 0 27.473 12.488 27.473 27.473v104.898h53.698l-54.946 228.527 154.849 152.351c11.239 11.239 11.239 28.722 0 39.961s-28.722 11.239-39.961 0zM293.463 753.015c-48.702 0-88.663-39.961-88.663-88.663s39.961-88.663 88.663-88.663 88.663 39.961 88.663 88.663c0 48.702-39.961 88.663-88.663 88.663zM734.283 753.015c-48.702 0-88.663-39.961-88.663-88.663s39.961-88.663 88.663-88.663 88.663 39.961 88.663 88.663c1.249 48.702-38.712 88.663-88.663 88.663z" />
<glyph unicode="&#xe90f;" glyph-name="lotus-82x82" data-tags="lotus-82x82" d="M530.732 771.746c3.746-3.746 63.688-52.449 109.893-126.127 78.673 41.21 154.849 53.698 158.595 53.698 8.741 1.249 17.483-3.746 19.98-11.239 2.498-4.995 28.722-77.424 32.468-164.839 88.663-2.498 161.093-31.22 163.59-32.468 8.741-3.746 12.488-11.239 11.239-19.98s-33.717-209.795-174.829-290.966c-51.2-28.722-107.395-38.712-159.844-38.712-73.678 0-137.366 18.732-166.088 27.473l-3.746 1.249c-1.249 0-2.498 1.249-3.746 1.249s-2.498-1.249-3.746-1.249l-2.498-1.249c-27.473-8.741-92.41-27.473-166.088-27.473-52.449 0-109.893 9.99-159.844 38.712-142.361 81.171-174.829 282.224-176.078 290.966s3.746 17.483 11.239 19.98c3.746 1.249 76.176 28.722 163.59 32.468 2.498 87.415 29.971 159.844 32.468 164.839 3.746 8.741 11.239 12.488 19.98 11.239 3.746 0 79.922-12.488 158.595-53.698 46.205 73.678 106.146 122.38 109.893 126.127 7.493 4.995 17.483 4.995 24.976 0zM851.668 485.776v-3.746c-2.498-44.956-13.737-92.41-37.463-134.868-53.698-89.912-153.6-134.868-222.283-157.346 63.688-13.737 163.59-22.478 241.015 22.478 104.898 59.941 143.61 202.302 153.6 249.756-23.727 7.493-76.176 21.229-134.868 23.727zM186.068 485.776h-1.249c-58.693-2.498-109.893-16.234-134.868-23.727 11.239-47.454 49.951-189.815 154.849-249.756 77.424-44.956 177.327-36.215 241.015-22.478-68.683 22.478-168.585 67.434-221.034 158.595-24.976 43.707-36.215 91.161-38.712 137.366zM518.244 731.785c-34.966-32.468-138.615-137.366-138.615-257.249 0-121.132 103.649-226.029 138.615-258.498 34.966 32.468 138.615 137.366 138.615 258.498 1.249 119.883-102.4 224.78-138.615 257.249zM248.507 659.356c-14.985-46.205-51.2-188.566 8.741-293.463 44.956-78.673 134.868-119.883 197.307-139.863-48.702 52.449-112.39 143.61-112.39 247.259 0 49.951 14.985 97.405 36.215 138.615-52.449 28.722-104.898 42.459-129.873 47.454zM789.229 659.356c-24.976-4.995-77.424-18.732-129.873-47.454 21.229-41.21 36.215-88.663 36.215-138.615 0-103.649-63.688-194.81-112.39-247.259 62.439 19.98 152.351 62.439 197.307 139.863 59.941 106.146 23.727 248.507 8.741 293.463z" />
<glyph unicode="&#xe910;" glyph-name="network-82x82" data-tags="network-82x82" d="M578.185 314.693l81.171-112.39c7.493 2.498 16.234 3.746 24.976 3.746 53.698 0 96.156-43.707 96.156-96.156 0-53.698-43.707-96.156-96.156-96.156s-96.156 43.707-96.156 96.156c0 31.22 14.985 58.693 37.463 76.176l-79.922 111.141c-18.732-7.493-38.712-11.239-58.693-11.239-17.483 0-33.717 2.498-48.702 7.493l-19.98-36.215c24.976-18.732 41.21-47.454 41.21-81.171 0-54.946-44.956-99.902-99.902-99.902s-99.902 44.956-99.902 99.902c0 54.946 44.956 99.902 99.902 99.902 8.741 0 16.234-1.249 24.976-2.498l19.98 36.215c-39.961 24.976-67.434 67.434-71.18 116.137h-104.898c-8.741-43.707-47.454-77.424-94.907-77.424-53.698 0-96.156 43.707-96.156 96.156 0 53.698 43.707 96.156 96.156 96.156 46.205 0 86.166-33.717 94.907-77.424h106.146c7.493 46.205 34.966 87.415 73.678 109.893l-34.966 48.702c-16.234-7.493-33.717-11.239-52.449-11.239-73.678 0-133.62 59.941-133.62 133.62s58.693 132.371 132.371 132.371 133.62-59.941 133.62-133.62c0-41.21-18.732-78.673-48.702-102.4l38.712-52.449c13.737 3.746 28.722 6.244 43.707 6.244 24.976 0 47.454-6.244 68.683-16.234l58.693 94.907c-18.732 17.483-29.971 42.459-29.971 69.932 0 53.698 43.707 96.156 96.156 96.156s96.156-43.707 96.156-96.156c0-53.698-43.707-96.156-96.156-96.156-12.488 0-24.976 2.498-34.966 6.244l-58.693-94.907c26.224-21.229 44.956-52.449 52.449-86.166h41.21c11.239 79.922 79.922 142.361 162.341 142.361 89.912 0 163.59-73.678 163.59-163.59s-73.678-163.59-163.59-163.59c-84.917 0-154.849 64.937-163.59 148.605h-37.463c-2.498-49.951-26.224-93.659-63.688-121.132zM685.58 168.585c-6.244 0-12.488-1.249-18.732-2.498 0 0-1.249-1.249-1.249-1.249-2.498-2.498-6.244-2.498-8.741-3.746-17.483-9.99-29.971-29.971-29.971-51.2 0-32.468 26.224-58.693 58.693-58.693s58.693 26.224 58.693 58.693c0 31.22-26.224 58.693-58.693 58.693zM359.649 238.517c-34.966 0-62.439-27.473-62.439-62.439 0-33.717 27.473-62.439 62.439-62.439s62.439 27.473 62.439 62.439c0 34.966-27.473 62.439-62.439 62.439zM487.024 556.956c-64.937 0-117.385-52.449-117.385-117.385s52.449-117.385 117.385-117.385 117.385 52.449 117.385 117.385c0 38.712-18.732 73.678-47.454 94.907-2.498 0-3.746 1.249-4.995 2.498-2.498 1.249-3.746 2.498-4.995 4.995-18.732 8.741-38.712 14.985-59.941 14.985zM842.927 575.688c-69.932 0-126.127-56.195-126.127-126.127s56.195-126.127 126.127-126.127c69.932 0 126.127 56.195 126.127 126.127s-57.444 126.127-126.127 126.127zM132.371 502.010c-32.468 0-58.693-26.224-58.693-58.693s26.224-58.693 58.693-58.693c32.468 0 58.693 26.224 58.693 58.693 0 0 0 0 0 0v0 2.498c0 31.22-26.224 56.195-58.693 56.195zM319.688 839.181c-52.449 0-96.156-42.459-96.156-96.156s42.459-96.156 96.156-96.156 96.156 42.459 96.156 96.156-43.707 96.156-96.156 96.156zM680.585 801.717c-32.468 0-58.693-26.224-58.693-58.693s26.224-58.693 58.693-58.693c32.468 0 58.693 26.224 58.693 58.693 1.249 32.468-24.976 58.693-58.693 58.693z" />
<glyph unicode="&#xe911;" glyph-name="hybridtraining-82x82" data-tags="hybridtraining-82x82" d="M555.707 921.6c2.498 9.99 12.488 16.234 21.229 13.737 9.99-2.498 16.234-12.488 13.737-21.229v0l-204.8-946.576c-1.249-8.741-9.99-14.985-17.483-14.985-1.249 0-2.498 0-3.746 0-9.99 2.498-16.234 12.488-13.737 21.229v0l21.229 97.405h-365.893v770.498h531.98l17.483 79.922zM909.112 835.434c59.941 0 108.644-48.702 108.644-108.644v0-504.507c0-59.941-48.702-108.644-108.644-108.644v0h-270.985v-82.42h58.693c9.99 0 18.732-8.741 18.732-18.732s-8.741-18.732-18.732-18.732v0h-273.483l7.493 36.215h23.727v82.42h-6.244l7.493 36.215h453.307c39.961 0 72.429 32.468 72.429 72.429v0 14.985h-264.741c-1.249 0-2.498 0-3.746 0s-2.498 0-3.746 0v0h-233.522l7.493 36.215h209.795c-3.746 54.946-26.224 162.341-147.356 162.341-9.99 0-18.732-1.249-27.473-2.498v0l13.737 62.439c4.995-1.249 9.99-1.249 13.737-1.249 53.698 0 97.405 43.707 97.405 97.405 0 44.956-29.971 82.42-69.932 93.659v0l7.493 36.215c57.444-14.985 99.902-67.434 99.902-129.873 0-57.444-36.215-106.146-86.166-124.878 92.41-22.478 131.122-107.395 136.117-193.561v0h251.005v454.556c0 39.961-32.468 72.429-72.429 72.429v0h-312.195l7.493 36.215h304.702zM601.912 112.39h-109.893v-78.673h109.893v78.673zM419.59 295.961h-377.132v-183.571h337.171l11.239 51.2h-204.8c-12.488-14.985-31.22-24.976-51.2-24.976-37.463 0-67.434 29.971-67.434 67.434s29.971 67.434 67.434 67.434c19.98 0 38.712-8.741 51.2-24.976v0h223.532l9.99 47.454zM133.62 249.756c-23.727 0-42.459-18.732-42.459-42.459s18.732-42.459 42.459-42.459c17.483 0 31.22 9.99 38.712 24.976v0h223.532l7.493 36.215h-231.024c-6.244 13.737-21.229 23.727-38.712 23.727zM529.483 804.215h-487.024v-472.039h384.624l37.463 172.332-56.195-32.468c-3.746-2.498-7.493-3.746-12.488-3.746-12.488 0-24.976 9.99-24.976 24.976v0 158.595c0 13.737 11.239 24.976 24.976 24.976 3.746 0 8.741-1.249 12.488-3.746v0l82.42-47.454 38.712 178.576zM408.351 630.634v-116.137l67.434 38.712 7.493 34.966-74.927 42.459zM887.883 738.029c14.985 0 27.473-12.488 27.473-27.473s-12.488-27.473-27.473-27.473c-14.985 0-27.473 12.488-27.473 27.473s12.488 27.473 27.473 27.473z" />
<glyph unicode="&#xe912;" glyph-name="virtualtraining-82x82" data-tags="virtualtraining-82x82" d="M884.137 870.4c61.19 0 111.141-49.951 111.141-111.141v-516.995c0-61.19-49.951-111.141-111.141-111.141h-278.478v-84.917h59.941c9.99 0 18.732-8.741 18.732-18.732s-8.741-18.732-18.732-18.732h-307.2c-9.99 0-18.732 8.741-18.732 18.732s8.741 18.732 18.732 18.732h59.941v84.917h-278.478c-61.19 0-111.141 49.951-111.141 111.141v516.995c0 61.19 49.951 111.141 111.141 111.141h744.273zM568.195 129.873h-113.639v-81.171h113.639v81.171zM337.171 257.249h-270.985v-14.985c0-41.21 32.468-73.678 73.678-73.678h744.273c41.21 0 73.678 32.468 73.678 73.678v14.985h-270.985c-1.249 0-2.498 0-3.746 0s-2.498 0-3.746 0h-334.673c-1.249 0-2.498 0-3.746 0s-2.498 0-3.746 0zM884.137 832.937h-744.273c-41.21 0-73.678-32.468-73.678-73.678v-464.546h257.249c4.995 87.415 43.707 176.078 138.615 198.556-51.2 19.98-87.415 69.932-87.415 128.624 0 76.176 61.19 137.366 137.366 137.366s137.366-61.19 137.366-137.366c0-58.693-36.215-108.644-87.415-128.624 94.907-22.478 134.868-109.893 138.615-198.556h257.249v464.546c0 39.961-32.468 73.678-73.678 73.678zM512 460.8c-124.878 0-147.356-111.141-151.102-166.088h302.205c-3.746 56.195-26.224 166.088-151.102 166.088zM512 720.546c-54.946 0-99.902-44.956-99.902-99.902s44.956-99.902 99.902-99.902c54.946 0 99.902 44.956 99.902 99.902s-44.956 99.902-99.902 99.902zM865.405 770.498c14.985 0 27.473-12.488 27.473-27.473s-12.488-27.473-27.473-27.473c-14.985 0-27.473 12.488-27.473 27.473s12.488 27.473 27.473 27.473z" />
<glyph unicode="&#xe913;" glyph-name="notebook-82x82" data-tags="notebook-82x82" d="M168.585 24.976c-9.99 0-18.732 8.741-18.732 18.732v158.595h-39.961c-9.99 0-18.732 8.741-18.732 18.732s8.741 18.732 18.732 18.732h39.961v183.571h-39.961c-9.99 0-18.732 8.741-18.732 18.732s8.741 18.732 18.732 18.732h39.961v182.322h-39.961c-9.99 0-18.732 8.741-18.732 18.732s8.741 18.732 18.732 18.732h39.961v167.337c0 9.99 8.741 18.732 18.732 18.732h566.946c9.99 0 18.732-8.741 18.732-18.732v-211.044l42.459 54.946c0 0 0 0 0 0l41.21 52.449c7.493 8.741 17.483 14.985 28.722 16.234s22.478-1.249 31.22-8.741l64.937-49.951c8.741-7.493 14.985-17.483 16.234-28.722s-1.249-22.478-8.741-31.22l-41.21-52.449-174.829-223.532v-319.688c0-9.99-8.741-18.732-18.732-18.732h-566.946zM268.488 829.19h-81.171v-148.605h23.727c9.99 0 18.732-8.741 18.732-18.732s-8.741-18.732-18.732-18.732h-23.727v-182.322h23.727c9.99 0 18.732-8.741 18.732-18.732s-8.741-18.732-18.732-18.732h-23.727v-182.322h23.727c9.99 0 18.732-8.741 18.732-18.732s-8.741-18.732-18.732-18.732h-23.727v-141.112h81.171v766.751zM716.8 829.19h-410.849v-766.751h410.849v253.502l-96.156-123.629c0 0 0 0-1.249-1.249l1.249 1.249c0 0-1.249-1.249-1.249-1.249s0 0-1.249-1.249-1.249-1.249-2.498-2.498c0 0 0 0-1.249 0 0 0 0 0-1.249 0 0 0 0 0-1.249 0l-124.878-54.946c-2.498-1.249-4.995-1.249-7.493-1.249-3.746 0-8.741 1.249-11.239 3.746-4.995 3.746-7.493 11.239-7.493 17.483l22.478 134.868c0 1.249 1.249 3.746 1.249 4.995 0 0 0 0 0 1.249 0 0 0 0 0 1.249 0 0 0 0 0 1.249 0 0 0 0 1.249 1.249 0 0 0 0 0 0l228.527 292.215 2.498 239.766zM515.746 251.005l-11.239-69.932 64.937 28.722-53.698 41.21zM815.454 654.361l-285.971-365.893 73.678-57.444 285.971 365.893-73.678 57.444zM643.122 740.527c9.99 0 18.732-8.741 18.732-18.732v-118.634c0-9.99-8.741-18.732-18.732-18.732h-262.244c-9.99 0-18.732 8.741-18.732 18.732v118.634c0 9.99 8.741 18.732 18.732 18.732h262.244zM624.39 703.063h-224.78v-81.171h224.78v81.171zM871.649 723.044c-1.249 0-2.498 0-3.746-2.498l-28.722-37.463 73.678-57.444 28.722 37.463c1.249 1.249 1.249 2.498 1.249 3.746s0 2.498-2.498 3.746v0l-64.937 49.951c-1.249 2.498-3.746 2.498-3.746 2.498z" />
<glyph unicode="&#xe914;" glyph-name="onlineplatform-82x82" data-tags="onlineplatform-82x82" d="M999.024 839.181v-786.732h-961.561v786.732h961.561zM961.561 279.727h-886.634v-187.317h886.634v187.317zM867.902 258.498c37.463 0 68.683-31.22 68.683-68.683s-31.22-68.683-68.683-68.683c-19.98 0-39.961 9.99-52.449 24.976v0h-244.761c-12.488-14.985-32.468-24.976-52.449-24.976s-39.961 9.99-52.449 24.976v0h-244.761c-12.488-14.985-32.468-24.976-52.449-24.976-37.463 0-68.683 31.22-68.683 68.683s31.22 68.683 68.683 68.683c19.98 0 39.961-9.99 52.449-24.976v0h243.512c12.488 14.985 32.468 24.976 52.449 24.976s39.961-9.99 52.449-24.976v0h243.512c14.985 14.985 34.966 24.976 54.946 24.976zM867.902 233.522c-17.483 0-32.468-9.99-38.712-24.976v0h-272.234c-7.493 14.985-22.478 24.976-39.961 24.976s-32.468-9.99-38.712-24.976v0h-270.985c-7.493 14.985-22.478 24.976-38.712 24.976-23.727 0-43.707-19.98-43.707-43.707s19.98-43.707 43.707-43.707c17.483 0 32.468 9.99 38.712 24.976v0h270.985c7.493-14.985 22.478-24.976 38.712-24.976 17.483 0 32.468 9.99 39.961 24.976v0h270.985c7.493-14.985 22.478-24.976 38.712-24.976 23.727 0 43.707 19.98 43.707 43.707 1.249 23.727-18.732 43.707-42.459 43.707zM961.561 801.717h-886.634v-484.527h886.634v484.527zM474.537 670.595c3.746 0 8.741-1.249 12.488-3.746v0l141.112-81.171c16.234-9.99 16.234-33.717 0-43.707v0l-141.112-81.171c-3.746-2.498-8.741-3.746-12.488-3.746-12.488 0-24.976 9.99-24.976 24.976v0 162.341c0 14.985 12.488 26.224 24.976 26.224zM487.024 623.141v-119.883l103.649 59.941-103.649 59.941z" />
<glyph unicode="&#xe915;" glyph-name="pin-82x82" data-tags="pin-82x82" d="M515.746 882.888c197.307 0 358.4-161.093 358.4-358.4 0-132.371-59.941-267.239-173.58-389.62-84.917-91.161-168.585-143.61-172.332-146.107s-7.493-3.746-11.239-3.746c-3.746 0-7.493 1.249-11.239 3.746s-87.415 56.195-172.332 147.356c-114.888 124.878-174.829 258.498-174.829 388.371 0 197.307 159.844 358.4 357.151 358.4zM515.746 839.181c-172.332 0-313.444-141.112-313.444-314.693 0-258.498 256-450.81 314.693-490.771 57.444 39.961 313.444 228.527 313.444 490.771 0 173.58-141.112 314.693-314.693 314.693zM515.746 696.82c94.907 0 172.332-77.424 172.332-172.332s-77.424-172.332-172.332-172.332-171.083 78.673-171.083 172.332 77.424 172.332 171.083 172.332zM515.746 653.112c-71.18 0-127.376-57.444-127.376-127.376s57.444-127.376 127.376-127.376 128.624 56.195 128.624 126.127-57.444 128.624-128.624 128.624z" />
<glyph unicode="&#xe916;" glyph-name="scholarship-82x82" data-tags="scholarship-82x82" d="M374.634 924.098c164.839 0 304.702-111.141 348.41-262.244v0l43.707 59.941c24.976 24.976 98.654 24.976 176.078-52.449 78.673-78.673 77.424-151.102 52.449-176.078v0l-2.498-2.498-272.234-194.81c0 0 0-1.249 0-1.249 23.727 0 53.698 9.99 74.927 18.732v0l64.937 29.971-83.668-113.639c4.995-8.741 12.488-19.98 19.98-32.468l4.995-7.493c1.249-2.498 3.746-4.995 4.995-7.493v0l17.483-26.224-31.22-2.498c-72.429-7.493-127.376 34.966-151.102 57.444v0l-172.332-238.517c-2.498-4.995-4.995-9.99-8.741-13.737-1.249-1.249-2.498-2.498-3.746-2.498v0l-3.746-6.244-1.249 1.249c-29.971-16.234-87.415-1.249-158.595 68.683-69.932 69.932-84.917 128.624-68.683 158.595v0l-1.249 1.249 4.995 3.746c1.249 1.249 2.498 2.498 2.498 3.746 3.746 3.746 8.741 6.244 13.737 8.741v0l24.976 18.732c-148.605 44.956-257.249 183.571-257.249 347.161 0 199.805 162.341 362.146 362.146 362.146zM373.385 99.902c-67.434 67.434-108.644 67.434-114.888 61.19s-4.995-47.454 62.439-114.888c14.985-14.985 28.722-26.224 41.21-34.966 11.239-3.746 18.732-2.498 21.229 0 1.249 1.249 2.498 6.244 2.498 12.488-1.249 1.249-1.249 2.498-1.249 3.746-1.249 4.995-2.498 9.99-3.746 13.737-4.995 9.99-13.737 22.478-26.224 34.966v0l1.249 1.249c-1.249 1.249-3.746 3.746-4.995 4.995-13.737 13.737-27.473 21.229-33.717 23.727 2.498-6.244 9.99-19.98 23.727-33.717 4.995-4.995 9.99-8.741 14.985-12.488s6.244-12.488 2.498-17.483c-3.746-4.995-12.488-6.244-17.483-2.498-6.244 4.995-11.239 9.99-17.483 14.985-23.727 23.727-41.21 56.195-26.224 71.18 16.234 16.234 47.454-1.249 71.18-26.224 16.234-16.234 27.473-29.971 34.966-48.702 12.488-26.224 9.99-47.454-1.249-58.693-1.249-1.249-2.498-2.498-3.746-3.746 22.478-9.99 36.215-8.741 38.712-4.995 3.746 6.244 2.498 48.702-63.688 116.137zM531.98 360.898l-228.527-167.337c27.473-9.99 59.941-31.22 94.907-67.434 36.215-36.215 56.195-67.434 67.434-94.907v0l159.844 218.537c0 6.244 1.249 13.737 2.498 21.229-4.995 13.737-16.234 31.22-36.215 51.2-23.727 23.727-46.205 34.966-59.941 38.712v0zM754.263 259.746c-18.732-3.746-39.961-4.995-58.693-1.249v0l-24.976-24.976c16.234-14.985 46.205-37.463 86.166-43.707-9.99 16.234-18.732 29.971-18.732 29.971v0l-6.244 11.239 22.478 28.722zM374.634 886.634c-178.576 0-324.683-146.107-324.683-324.683 0-157.346 112.39-288.468 259.746-318.439v0l177.327 129.873c0 4.995 1.249 9.99 4.995 13.737v0l51.2 51.2c7.493 7.493 16.234 11.239 27.473 11.239v0l122.38 171.083c-27.473 151.102-159.844 265.99-318.439 265.99zM643.122 372.137c-37.463 37.463-68.683 42.459-72.429 39.961v0l-18.732-18.732c44.956-16.234 96.156-67.434 112.39-112.39v0l18.732 18.732c2.498 3.746-2.498 34.966-39.961 72.429zM370.888 816.702c4.995 0 8.741-1.249 11.239-4.995 2.498-2.498 4.995-6.244 4.995-11.239v-38.712c9.99-1.249 18.732-2.498 27.473-4.995 8.741-1.249 16.234-3.746 24.976-7.493s14.985-6.244 22.478-11.239c7.493-4.995 13.737-9.99 21.229-14.985 4.995-3.746 7.493-8.741 7.493-16.234 0-2.498 0-6.244-1.249-8.741s-2.498-4.995-4.995-7.493c-2.498-2.498-3.746-3.746-6.244-4.995s-4.995-2.498-8.741-2.498c-4.995 0-9.99 1.249-13.737 4.995-11.239 8.741-21.229 16.234-32.468 21.229s-22.478 7.493-34.966 9.99v-118.634c13.737-3.746 28.722-8.741 42.459-13.737s26.224-11.239 37.463-19.98c11.239-7.493 19.98-18.732 26.224-29.971 6.244-12.488 9.99-27.473 9.99-44.956 0-12.488-2.498-24.976-6.244-36.215-3.746-12.488-11.239-22.478-19.98-32.468s-21.229-18.732-36.215-24.976c-14.985-6.244-32.468-11.239-53.698-12.488v-36.215c0-4.995-1.249-8.741-4.995-11.239-2.498-2.498-6.244-4.995-11.239-4.995s-8.741 1.249-12.488 4.995c-3.746 2.498-4.995 6.244-4.995 11.239v36.215c-11.239 1.249-22.478 2.498-33.717 4.995s-21.229 4.995-29.971 8.741c-9.99 3.746-18.732 8.741-26.224 13.737-8.741 4.995-16.234 11.239-22.478 17.483-2.498 2.498-4.995 4.995-4.995 7.493-1.249 2.498-1.249 6.244-1.249 8.741 0 4.995 2.498 11.239 6.244 16.234s8.741 7.493 14.985 7.493c4.995 0 8.741-1.249 13.737-4.995 11.239-9.99 23.727-17.483 38.712-24.976s31.22-12.488 48.702-13.737v132.371c-13.737 3.746-27.473 7.493-41.21 12.488s-26.224 11.239-36.215 18.732c-11.239 7.493-19.98 17.483-26.224 28.722s-9.99 24.976-9.99 42.459c0 13.737 2.498 27.473 8.741 38.712 6.244 12.488 13.737 22.478 23.727 31.22s22.478 16.234 36.215 21.229c13.737 4.995 29.971 8.741 46.205 9.99v37.463c0 4.995 1.249 8.741 4.995 11.239-3.746 3.746 1.249 4.995 6.244 4.995zM915.356 643.122c-63.688 63.688-113.639 59.941-122.38 53.698v0l-182.322-256c19.98-8.741 41.21-24.976 58.693-42.459 18.732-18.732 34.966-41.21 43.707-62.439v0l256 183.571c7.493 9.99 9.99 59.941-53.698 123.629zM387.122 550.712v-124.878c13.737 1.249 23.727 3.746 32.468 8.741 8.741 3.746 16.234 8.741 21.229 14.985s8.741 12.488 11.239 18.732c2.498 6.244 3.746 13.737 3.746 19.98 0 8.741-1.249 16.234-4.995 22.478s-8.741 12.488-14.985 17.483c-6.244 4.995-13.737 8.741-22.478 12.488s-17.483 7.493-26.224 9.99zM353.405 721.795c-19.98-1.249-36.215-7.493-48.702-17.483s-18.732-23.727-18.732-39.961c0-7.493 1.249-14.985 4.995-19.98s8.741-9.99 13.737-14.985c6.244-3.746 12.488-7.493 21.229-11.239 7.493-3.746 16.234-6.244 26.224-8.741v112.39z" />
<glyph unicode="&#xe917;" glyph-name="school-82x82" data-tags="school-82x82" d="M645.62 899.122c9.99 0 18.732-8.741 18.732-18.732v-84.917c0-9.99-8.741-18.732-18.732-18.732h-108.644v-28.722l114.888-102.4h189.815c6.244 0 12.488-3.746 14.985-8.741l112.39-168.585c3.746-6.244 3.746-13.737 1.249-18.732-3.746-6.244-9.99-9.99-16.234-9.99h-37.463v-414.595h37.463c9.99 0 18.732-8.741 18.732-18.732s-7.493-18.732-17.483-18.732h-874.146c-9.99 0-18.732 8.741-18.732 18.732s8.741 18.732 18.732 18.732h37.463v413.346h-37.463c-7.493 0-13.737 3.746-16.234 9.99-3.746 6.244-2.498 13.737 1.249 18.732l112.39 168.585c3.746 4.995 8.741 8.741 14.985 8.741h189.815l114.888 102.4v132.371c1.249 11.239 9.99 19.98 19.98 19.98h127.376zM518.244 545.717l-114.888-101.151c-3.746-2.498-7.493-4.995-12.488-4.995h-234.771v-413.346h278.478v207.298c0 7.493 4.995 12.488 12.488 12.488h141.112c7.493 0 12.488-4.995 12.488-12.488v-207.298h278.478v413.346h-234.771c-4.995 0-8.741 1.249-12.488 4.995l-113.639 101.151zM575.688 219.785h-116.137v-194.81h116.137v194.81zM701.815 244.761c7.493 0 12.488-4.995 12.488-12.488v-112.39c0-7.493-4.995-12.488-12.488-12.488h-56.195c-7.493 0-12.488 4.995-12.488 12.488v112.39c0 7.493 4.995 12.488 12.488 12.488h56.195zM842.927 244.761c7.493 0 12.488-4.995 12.488-12.488v-112.39c0-7.493-4.995-12.488-12.488-12.488h-56.195c-7.493 0-12.488 4.995-12.488 12.488v112.39c0 7.493 4.995 12.488 12.488 12.488h56.195zM249.756 244.761c7.493 0 12.488-4.995 12.488-12.488v-112.39c0-7.493-4.995-12.488-12.488-12.488h-56.195c-7.493 0-12.488 4.995-12.488 12.488v112.39c0 7.493 4.995 12.488 12.488 12.488h56.195zM390.868 244.761c7.493 0 12.488-4.995 12.488-12.488v-112.39c0-7.493-4.995-12.488-12.488-12.488h-56.195c-7.493 0-12.488 4.995-12.488 12.488v112.39c0 7.493 4.995 12.488 12.488 12.488h56.195zM689.327 219.785h-31.22v-87.415h31.22v87.415zM830.439 219.785h-31.22v-87.415h31.22v87.415zM237.268 219.785h-31.22v-87.415h31.22v87.415zM378.38 219.785h-31.22v-87.415h31.22v87.415zM701.815 413.346c7.493 0 12.488-4.995 12.488-12.488v-112.39c0-7.493-4.995-12.488-12.488-12.488h-56.195c-7.493 0-12.488 4.995-12.488 12.488v112.39c0 7.493 4.995 12.488 12.488 12.488h56.195zM842.927 413.346c7.493 0 12.488-4.995 12.488-12.488v-112.39c0-7.493-4.995-12.488-12.488-12.488h-56.195c-7.493 0-12.488 4.995-12.488 12.488v112.39c0 7.493 4.995 12.488 12.488 12.488h56.195zM249.756 413.346c7.493 0 12.488-4.995 12.488-12.488v-112.39c0-7.493-4.995-12.488-12.488-12.488h-56.195c-7.493 0-12.488 4.995-12.488 12.488v112.39c0 7.493 4.995 12.488 12.488 12.488h56.195zM390.868 413.346c7.493 0 12.488-4.995 12.488-12.488v-112.39c0-7.493-4.995-12.488-12.488-12.488h-56.195c-7.493 0-12.488 4.995-12.488 12.488v112.39c0 7.493 4.995 12.488 12.488 12.488h56.195zM689.327 388.371h-31.22v-87.415h31.22v87.415zM830.439 388.371h-31.22v-87.415h31.22v87.415zM237.268 388.371h-31.22v-87.415h31.22v87.415zM378.38 388.371h-31.22v-87.415h31.22v87.415zM518.244 469.541c46.205 0 82.42-37.463 82.42-82.42 0-46.205-37.463-82.42-82.42-82.42s-82.42 37.463-82.42 82.42c0 44.956 36.215 82.42 82.42 82.42zM518.244 444.566c-32.468 0-57.444-26.224-57.444-57.444 0-32.468 26.224-57.444 57.444-57.444s57.444 26.224 57.444 57.444c0 31.22-24.976 57.444-57.444 57.444zM518.244 714.302l-114.888-101.151c-3.746-2.498-7.493-4.995-12.488-4.995h-187.317l-87.415-131.122h268.488l121.132 108.644c7.493 6.244 17.483 6.244 24.976 0l121.132-108.644h268.488l-87.415 131.122h-187.317c-4.995 0-8.741 1.249-12.488 4.995l-114.888 101.151zM626.888 861.659h-89.912v-47.454h89.912v47.454z" />
<glyph unicode="&#xe918;" glyph-name="world-82x82" data-tags="world-82x82" d="M322.185 499.512c-1.249 1.249-2.498 2.498-3.746 3.746s-2.498 1.249-2.498 2.498c1.249 0 2.498 1.249 4.995 1.249 8.741 2.498 17.483 6.244 23.727 6.244 3.746 0 6.244-1.249 9.99-2.498 7.493-2.498 17.483-4.995 27.473-2.498 3.746 1.249 8.741 1.249 13.737 1.249s23.727-1.249 28.722-11.239c7.493-13.737 19.98-18.732 28.722-22.478 2.498-1.249 6.244-2.498 7.493-2.498 0-1.249 1.249-1.249 1.249-2.498 0 0 0 0-1.249-1.249-3.746-4.995-13.737-17.483 0-34.966v0c6.244-7.493 14.985-11.239 24.976-11.239 3.746 0 7.493 0 11.239 1.249 2.498 0 4.995 0 8.741 1.249 1.249 0 2.498 0 4.995-1.249 3.746-1.249 9.99-3.746 13.737-6.244 8.741-4.995 18.732-9.99 28.722-9.99 7.493 0 13.737-4.995 16.234-11.239 6.244-13.737 0-31.22-7.493-49.951-1.249-4.995-3.746-8.741-4.995-13.737-2.498-8.741-2.498-16.234-1.249-22.478 0-2.498 0-6.244 0-6.244-7.493-16.234-21.229-27.473-36.215-41.21-4.995-4.995-9.99-8.741-14.985-13.737-7.493-7.493-12.488-12.488-17.483-18.732-6.244-8.741-8.741-17.483-11.239-26.224-2.498-7.493-3.746-14.985-8.741-17.483-17.483-12.488-17.483-29.971-17.483-41.21 0-3.746 0-7.493 0-8.741-1.249-3.746-3.746-8.741-6.244-13.737s-4.995-9.99-7.493-13.737c-1.249-4.995-2.498-9.99-3.746-12.488 0-1.249 0-2.498 0-2.498-1.249 1.249-3.746 2.498-6.244 4.995-6.244 7.493-8.741 12.488-8.741 13.737 1.249 18.732-3.746 34.966-9.99 49.951-6.244 16.234-11.239 29.971-7.493 46.205 6.244 26.224 4.995 49.951-2.498 69.932-6.244 16.234-18.732 24.976-28.722 32.468-7.493 4.995-14.985 9.99-21.229 18.732 0 1.249 0 6.244 0 7.493 0 7.493 0 17.483-4.995 27.473-8.741 19.98-21.229 28.722-29.971 33.717-1.249 1.249-4.995 3.746-6.244 4.995-2.498 13.737 3.746 23.727 12.488 36.215 3.746 4.995 6.244 11.239 9.99 16.234 6.244 14.985 3.746 31.22-6.244 42.459zM149.854 626.888c0-1.249 0-1.249 0-2.498s1.249-2.498 1.249-4.995v-1.249c1.249-2.498 2.498-3.746 3.746-6.244 2.498-2.498 8.741-8.741 17.483-8.741 1.249 0 2.498 0 3.746 0 2.498-33.717 19.98-61.19 53.698-83.668 3.746-2.498 7.493-4.995 11.239-7.493 7.493-4.995 14.985-8.741 22.478-12.488 12.488-7.493 26.224-14.985 31.22-19.98 1.249 0 1.249-1.249 1.249-1.249 1.249-2.498 2.498-4.995 1.249-4.995-2.498-4.995-4.995-9.99-8.741-13.737-8.741-14.985-19.98-32.468-16.234-57.444 2.498-14.985 12.488-22.478 19.98-27.473 6.244-4.995 12.488-8.741 17.483-19.98 1.249-3.746 1.249-9.99 2.498-14.985 0-8.741 0-17.483 6.244-24.976 9.99-13.737 21.229-21.229 29.971-27.473s13.737-9.99 17.483-17.483c4.995-13.737 6.244-31.22 1.249-51.2-6.244-26.224 2.498-48.702 8.741-64.937 4.995-12.488 8.741-23.727 7.493-34.966-1.249-17.483 12.488-34.966 16.234-38.712 6.244-6.244 18.732-17.483 33.717-17.483 8.741 0 16.234 3.746 21.229 11.239s7.493 13.737 7.493 18.732c0 2.498 1.249 4.995 2.498 7.493s2.498 6.244 4.995 9.99c3.746 6.244 7.493 13.737 8.741 19.98 2.498 6.244 2.498 13.737 1.249 18.732 0 9.99 0 11.239 3.746 14.985 12.488 9.99 16.234 23.727 19.98 34.966 1.249 6.244 3.746 12.488 6.244 14.985 3.746 4.995 7.493 8.741 13.737 14.985 4.995 3.746 8.741 8.741 13.737 12.488 16.234 13.737 32.468 28.722 43.707 49.951 3.746 8.741 3.746 17.483 3.746 23.727 0 3.746 0 7.493 0 9.99 1.249 3.746 2.498 8.741 4.995 13.737 8.741 22.478 17.483 47.454 6.244 73.678-7.493 18.732-24.976 29.971-44.956 31.22-2.498 0-9.99 3.746-14.985 6.244s-12.488 6.244-18.732 8.741c-3.746 1.249-8.741 2.498-14.985 2.498h-1.249c-4.995 0-8.741 0-12.488-1.249 0 0 0 0 0 0 3.746 7.493 6.244 18.732-3.746 33.717-6.244 8.741-14.985 12.488-22.478 14.985-4.995 2.498-11.239 3.746-12.488 7.493-9.99 18.732-31.22 28.722-57.444 28.722-7.493 0-14.985-1.249-21.229-2.498-2.498-1.249-4.995 0-9.99 1.249s-11.239 3.746-19.98 3.746v0h-2.498c-2.498 0-4.995 0-7.493-1.249-7.493-1.249-14.985-3.746-23.727-6.244-4.995-1.249-11.239-3.746-16.234-4.995 0 6.244-1.249 12.488-4.995 18.732-1.249 2.498-2.498 3.746-3.746 6.244-7.493 11.239-8.741 13.737-4.995 21.229 2.498 4.995 2.498 11.239 0 14.985-4.995 8.741-13.737 13.737-23.727 13.737-2.498 0-6.244 0-8.741-1.249 0 7.493 2.498 11.239 9.99 19.98 4.995 6.244 11.239 13.737 17.483 26.224 1.249-1.249 2.498-2.498 3.746-3.746 3.746-3.746 7.493-6.244 9.99-8.741 0 0 1.249-1.249 2.498-2.498 4.995-6.244 14.985-17.483 28.722-17.483 2.498 0 6.244 0 8.741 1.249 17.483 6.244 11.239 24.976 9.99 31.22-1.249 2.498-2.498 7.493-1.249 8.741 4.995 24.976 39.961 57.444 86.166 67.434 1.249 0 3.746 1.249 4.995 1.249 9.99 6.244 12.488 12.488 13.737 17.483 0 2.498 0 4.995 0 7.493 4.995-3.746 9.99-6.244 17.483-6.244 2.498 0 13.737 1.249 18.732 13.737 3.746 8.741 3.746 18.732-2.498 29.971-4.995 9.99-12.488 21.229-22.478 29.971 6.244 2.498 9.99 7.493 11.239 12.488 0 1.249 1.249 2.498 1.249 3.746 2.498-7.493 4.995-16.234 11.239-21.229 4.995-3.746 9.99-4.995 13.737-4.995 12.488 0 18.732 9.99 22.478 17.483 1.249 1.249 2.498 3.746 2.498 4.995 2.498 1.249 4.995 3.746 8.741 4.995 11.239 4.995 23.727 7.493 37.463 7.493 34.966 0 66.185-16.234 81.171-31.22 0 0 1.249-1.249 1.249-1.249-23.727 0-28.722-13.737-29.971-18.732-4.995-29.971 21.229-34.966 29.971-36.215 2.498 0 4.995-1.249 7.493-1.249-6.244-8.741-13.737-22.478-9.99-34.966 1.249-4.995 6.244-12.488 19.98-16.234 2.498 0 4.995-1.249 7.493-1.249 6.244 0 12.488 1.249 17.483 2.498 0 0 0 0 0 0-28.722-21.229-22.478-48.702-16.234-76.176 2.498-9.99 4.995-22.478 6.244-33.717 0-1.249-3.746-6.244-4.995-8.741-4.995-8.741-13.737-22.478-7.493-36.215 4.995-11.239 18.732-13.737 27.473-14.985 1.249 0 2.498 0 3.746 0 3.746-4.995 6.244-12.488 9.99-19.98 7.493-18.732 16.234-41.21 43.707-47.454 2.498-1.249 6.244 0 8.741 0 4.995 1.249 8.741 3.746 13.737 4.995 8.741 3.746 19.98 7.493 24.976 4.995 6.244-3.746 12.488-6.244 21.229-6.244 2.498 0 6.244 0 8.741 0 1.249 0 1.249 0 2.498 0 0-2.498 0-4.995-1.249-8.741-1.249-13.737-2.498-29.971 7.493-43.707 0-2.498-1.249-7.493-2.498-11.239-2.498-9.99-7.493-24.976-1.249-38.712 1.249-3.746 0-11.239-2.498-17.483-1.249-4.995-2.498-9.99-3.746-16.234v-1.249c-2.498-16.234-6.244-54.946-23.727-86.166-7.493-13.737-8.741-29.971-1.249-44.956 2.498-4.995 8.741-18.732 21.229-21.229 1.249 0 2.498 0 4.995-1.249-74.927-89.912-187.317-147.356-312.195-147.356-223.532 4.995-405.854 187.317-405.854 410.849 0 66.185 16.234 128.624 43.707 183.571v-1.249c0-1.249 0-2.498 0-4.995zM328.429 811.707c-1.249-17.483 8.741-33.717 27.473-42.459 8.741-3.746 17.483-3.746 24.976-1.249 9.99 4.995 16.234 13.737 21.229 22.478 2.498 3.746 4.995 6.244 6.244 9.99 3.746 3.746 6.244 6.244 8.741 8.741 4.995-2.498 11.239-7.493 16.234-13.737-7.493 1.249-16.234 0-22.478-3.746-11.239-4.995-13.737-12.488-14.985-17.483-1.249-6.244 1.249-11.239 3.746-16.234-53.698-16.234-88.663-56.195-96.156-88.663-1.249 1.249-2.498 2.498-3.746 3.746-8.741 7.493-16.234 14.985-26.224 17.483s-19.98-3.746-23.727-12.488c-6.244-14.985-12.488-23.727-18.732-31.22-9.99-12.488-21.229-26.224-14.985-56.195 2.498-11.239 11.239-18.732 22.478-18.732 2.498 0 4.995 0 6.244 0 0-13.737 6.244-23.727 11.239-32.468-32.468 19.98-58.693 44.956-43.707 102.4 2.498 8.741-2.498 17.483-11.239 19.98-2.498 1.249-4.995 1.249-8.741 1.249h-1.249c-1.249 0-2.498 0-3.746 0l4.995 14.985 18.732 43.707c34.966 37.463 73.678 67.434 117.385 89.912zM375.883 809.21c0 0 0 0 0 0-3.746-4.995-4.995-7.493-7.493-9.99-3.746 2.498-6.244 4.995-6.244 6.244 3.746 0 8.741 1.249 13.737 3.746zM769.249 763.005v0c-7.493 0-12.488 1.249-21.229 7.493-2.498 2.498-4.995 3.746-8.741 3.746-1.249 0-3.746 0-4.995 0-23.727 0-29.971-19.98-33.717-29.971 0-1.249-1.249-2.498-1.249-3.746-7.493 3.746-16.234 2.498-23.727 0 0 0 0 1.249 1.249 1.249l3.746 4.995c2.498 3.746 3.746 8.741 3.746 12.488-2.498 12.488-8.741 19.98-16.234 24.976 3.746 1.249 7.493 3.746 9.99 8.741 2.498 3.746 3.746 8.741 3.746 12.488s-1.249 8.741-2.498 12.488v1.249c31.22-13.737 62.439-33.717 89.912-56.195zM794.224 705.561c2.498 0 3.746 1.249 6.244 2.498s6.244 1.249 13.737 1.249c2.498 0 4.995 0 8.741 0 0 0 0 0 0-1.249-9.99 0-17.483-3.746-23.727-7.493-2.498 1.249-3.746 3.746-4.995 4.995zM730.537 730.537c0 1.249 1.249 2.498 1.249 3.746 1.249 2.498 1.249 4.995 2.498 6.244 12.488-7.493 22.478-9.99 28.722-9.99 1.249-1.249 1.249-3.746 2.498-3.746-7.493 3.746-16.234 4.995-23.727 4.995-3.746 0-7.493 0-11.239-1.249zM917.854 449.561c0-68.683-17.483-132.371-46.205-188.566-2.498-2.498-6.244-6.244-8.741-8.741-18.732-18.732-28.722-24.976-32.468-27.473-1.249 2.498-2.498 7.493-2.498 11.239 0 2.498 1.249 3.746 2.498 6.244 19.98 36.215 24.976 78.673 27.473 97.405v1.249c0 3.746 1.249 7.493 2.498 11.239 2.498 11.239 6.244 24.976 0 38.712-1.249 2.498 1.249 9.99 2.498 14.985 3.746 11.239 7.493 27.473-2.498 39.961 0 1.249-1.249 1.249-1.249 2.498s0 2.498-1.249 3.746c0 3.746 0 8.741 1.249 13.737 0 3.746 1.249 7.493 1.249 11.239 0 2.498 0 3.746 0 6.244s0 3.746-1.249 6.244c0 2.498-1.249 4.995-2.498 6.244-6.244 8.741-14.985 12.488-26.224 12.488-2.498 0-4.995 0-8.741 0-2.498 0-3.746 0-6.244 0s-3.746 0-3.746 1.249c-8.741 6.244-19.98 7.493-29.971 4.995-8.741-1.249-16.234-4.995-24.976-7.493-2.498-1.249-3.746-1.249-6.244-2.498-7.493 3.746-11.239 11.239-17.483 26.224-3.746 11.239-8.741 22.478-17.483 31.22-4.995 6.244-13.737 7.493-19.98 8.741 0 0 1.249 1.249 1.249 1.249 4.995 7.493 9.99 16.234 8.741 26.224-1.249 14.985-3.746 27.473-6.244 39.961-7.493 33.717-8.741 42.459 34.966 57.444 13.737 4.995 31.22-4.995 42.459-22.478 4.995-8.741 12.488-11.239 17.483-11.239 1.249 0 1.249 0 2.498 0 7.493 0 13.737 3.746 18.732 7.493 3.746 2.498 7.493 4.995 8.741 3.746 3.746-1.249 7.493-1.249 11.239-1.249h1.249c1.249 0 1.249 0 2.498 1.249l1.249 1.249c1.249 0 1.249 1.249 2.498 1.249l1.249 1.249c0 0 1.249 1.249 1.249 1.249 46.205-63.688 72.429-142.361 72.429-228.527zM512 899.122c-248.507 0-449.561-201.054-449.561-449.561s201.054-449.561 449.561-449.561c248.507 0 449.561 201.054 449.561 449.561s-201.054 449.561-449.561 449.561z" />
<glyph unicode="&#xe919;" glyph-name="remove-34x34" data-tags="remove-34x34" d="M608.376 451.765l198.776-198.776c12.047-12.047 12.047-30.118 0-42.165l-54.212-54.212c-12.047-12.047-30.118-12.047-42.165 0l-198.776 198.776-198.776-198.776c-12.047-12.047-30.118-12.047-42.165 0l-54.212 54.212c-12.047 12.047-12.047 30.118 0 42.165l198.776 198.776-198.776 198.776c-12.047 12.047-12.047 30.118 0 42.165l54.212 54.212c12.047 12.047 30.118 12.047 42.165 0l198.776-198.776 198.776 198.776c12.047 12.047 30.118 12.047 42.165 0l54.212-54.212c12.047-12.047 12.047-30.118 0-42.165l-198.776-198.776z" />
<glyph unicode="&#xe91a;" glyph-name="positivepsych-88x88" data-tags="positivepsych-88x88" d="M424.96 796.315c88.747 22.187 186.88 3.413 256-49.493 57.173-43.52 89.6-105.813 91.307-176.64 0.853-19.627-2.56-50.347-9.387-71.68-5.12-15.36-5.973-73.387 12.8-103.253 4.267-5.973 8.533-12.8 13.653-18.773 7.68-9.387 15.36-19.627 20.48-29.867 4.267-8.533 5.12-17.067 2.56-23.893-4.267-12.8-17.92-19.627-29.013-24.747-2.56-0.853-4.267-2.56-6.827-3.413 1.707-12.8 2.56-24.747 4.267-36.693 0.853-8.533-4.267-16.213-12.8-18.773 0 0 0 0 0 0v0l0.853-5.12c1.707-7.68-2.56-15.36-9.387-18.773v0l-10.24-5.12c-1.707-8.533-0.853-17.067-0.853-26.453 0.853-24.747 1.707-55.467-35.84-69.973-20.48-7.68-41.813-4.267-58.027 0-7.68 1.707-16.213 4.267-23.893 6.827-18.773 5.12-36.693 10.24-54.613 13.653-5.973-7.68-11.947-16.213-18.773-23.893-27.307-34.987-56.32-70.827-62.293-110.933 0-4.267-1.707-7.68-5.12-10.24-1.707-1.707-4.267-1.707-6.827-1.707-3.413 0-5.973 0.853-8.533 3.413 0 0-0.853 0.853-0.853 0.853-1.707 2.56-2.56 5.973-2.56 8.533 5.973 46.933 38.4 88.747 67.413 124.587 6.827 8.533 13.653 17.067 19.627 24.747 0.853 2.56 1.707 5.12 3.413 6.827 2.56 2.56 5.973 3.413 9.387 2.56 23.040-3.413 45.227-9.387 65.707-15.36 7.68-2.56 15.36-4.267 23.040-6.827 13.653-3.413 29.867-6.827 43.52-0.853 20.48 7.68 21.333 21.333 20.48 47.787 0 12.8-0.853 25.6 2.56 38.4 0.853 3.413 3.413 5.973 5.973 7.68v0l10.24 5.12c-0.853 2.56-0.853 4.267-1.707 6.827s0 5.12 0.853 7.68c2.56 5.973 7.68 10.24 13.653 11.947-1.707 12.8-2.56 25.6-4.267 38.4 0 4.267 1.707 8.533 4.267 10.24 4.267 3.413 10.24 5.973 16.213 8.533 6.827 3.413 16.213 7.68 17.067 11.093 0.853 1.707-0.853 4.267-1.707 5.973-4.267 8.533-11.093 17.067-17.92 25.6-5.12 6.827-11.093 13.653-15.36 21.333-23.893 37.547-21.333 104.107-15.36 122.88 5.973 17.92 8.533 45.227 8.533 63.147-0.853 32.427-8.533 63.147-23.893 90.453-13.653 25.6-33.28 48.64-58.88 67.413-64 48.64-154.453 65.707-236.373 45.227 0 0 0 0 0 0s-6.827-1.707-17.92-5.12v0.853c-11.947-4.267-27.307-10.24-44.373-18.773-33.28-16.213-77.653-45.227-106.667-93.013-31.573-51.2-38.4-114.347-19.627-186.88 19.627-77.653 63.147-145.92 105.813-209.92 3.413-3.413 4.267-8.533 2.56-12.8-18.773-43.52-43.52-82.773-75.093-116.053-4.267-5.12-11.947-5.12-17.067-0.853s-5.12 11.947-0.853 17.067c28.16 29.867 50.347 64 68.267 102.4-42.667 64-86.187 133.973-106.667 213.333-20.48 78.507-12.8 147.627 23.040 204.8 31.573 52.053 81.067 84.48 116.907 102.4 36.693 19.627 66.56 27.307 69.12 27.307zM415.573 369.649c0 0-2.56-4.267-11.093-4.267-7.68 0-15.36 5.12-15.36 5.12s-10.24 5.12-11.947 12.8c-1.707 6.827 0.853 10.24 0.853 10.24s6.827 11.093 10.24 17.92c4.267 8.533 7.68 15.36 7.68 15.36-6.827-1.707-13.653-3.413-21.333-3.413-38.4 0-70.827 29.013-75.947 66.56-23.040 13.653-36.693 38.4-36.693 65.707 0 23.040 10.24 45.227 28.16 59.733-1.707 5.12-2.56 11.093-2.56 17.067 0 33.28 27.307 60.587 59.733 60.587 2.56 0 5.12 0 7.68-0.853 9.387 27.307 34.987 46.933 64.853 46.933 17.92 0 34.133-6.827 46.933-18.773 9.387 8.533 22.187 13.653 35.84 13.653 9.387 0 17.92-2.56 26.453-6.827 10.24 10.24 23.040 15.36 37.547 15.36 23.893 0 44.373-15.36 51.2-37.547 4.267 0.853 9.387 1.707 13.653 1.707 33.28 0 60.587-27.307 60.587-61.44 0-11.947-3.413-23.040-9.387-33.28 16.213-14.507 25.6-34.987 25.6-57.173 0-42.667-34.133-76.8-76.8-76.8-15.36 0-30.72 4.267-42.667 13.653-10.24-9.387-23.040-14.507-36.693-14.507-5.12 0-10.24 0.853-15.36 2.56-8.533-32.427-38.4-56.32-73.387-56.32-3.413 0-10.24 0.853-10.24 0.853s-3.413-11.093-16.213-31.573c-11.093-11.947-21.333-23.040-21.333-23.040zM424.107 422.555c5.973 11.093 8.533 20.48 8.533 20.48 1.707 5.973 8.533 9.387 14.507 7.68 5.12-1.707 10.24-2.56 14.507-2.56 28.16 0 51.2 22.187 52.053 50.347 0 4.267 2.56 8.533 6.827 10.24s8.533 1.707 11.947-0.853c5.12-3.413 11.093-5.973 17.92-5.973 10.24 0 19.627 5.12 25.6 13.653 1.707 2.56 5.12 5.12 8.533 5.12s6.827-0.853 9.387-3.413c10.24-9.387 23.040-14.507 36.693-14.507 29.013 0 52.907 23.893 52.907 53.76 0 18.773-9.387 35.84-24.747 45.227-3.413 1.707-5.12 5.12-5.12 8.533s0.853 6.827 3.413 9.387c6.827 6.827 11.093 16.213 11.093 26.453 0 20.48-17.067 37.547-37.547 37.547-5.973 0-11.947-1.707-17.067-4.267-3.413-1.707-7.68-1.707-11.093 0s-5.973 5.973-5.973 10.24c-0.853 17.067-13.653 29.867-30.72 29.867-10.24 0-20.48-5.12-25.6-14.507-1.707-2.56-5.12-5.12-8.533-5.12-3.413-0.853-6.827 0.853-9.387 2.56-5.973 5.12-12.8 7.68-20.48 7.68-10.24 0-19.627-5.12-25.6-14.507-1.707-3.413-5.973-5.12-9.387-5.12-4.267 0-7.68 1.707-10.24 5.12-8.533 11.947-22.187 19.627-36.693 19.627-22.187 0-41.813-17.067-44.373-39.253-0.853-3.413-2.56-6.827-5.12-8.533-3.413-1.707-6.827-2.56-10.24-0.853-4.267 1.707-8.533 2.56-11.947 2.56-20.48 0-36.693-16.213-36.693-36.693 0-5.12 0.853-11.093 3.413-16.213s0.853-11.947-4.267-15.36c-15.36-10.24-24.747-26.453-24.747-45.227 0-20.48 11.093-39.253 29.867-47.787 4.267-1.707 5.973-5.973 6.827-10.24 1.707-29.013 24.747-51.2 52.907-51.2 11.947 0 23.040 4.267 32.427 11.093 3.413 2.56 8.533 3.413 12.8 0.853s6.827-6.827 5.973-11.947v0c0 0-0.853-11.093-7.68-28.16-5.973-14.507-15.36-30.72-15.36-30.72v0c-0.853 2.56 9.387 14.507 20.48 34.987zM481.28 677.702c45.227 0 81.92-36.693 81.92-81.92s-36.693-81.92-81.92-81.92-81.92 36.693-81.92 81.92c0 45.227 36.693 81.92 81.92 81.92zM481.28 653.809c-32.427 0-58.027-26.453-58.027-58.027 0-32.427 26.453-58.027 58.027-58.027 32.427 0 58.027 26.453 58.027 58.027 0 32.427-25.6 58.027-58.027 58.027zM481.28 636.742c6.827 0 11.947-5.12 11.947-11.947v0-17.067h17.067c6.827 0 11.947-5.12 11.947-11.947s-5.12-11.947-11.947-11.947v0h-17.067v-17.067c0-6.827-5.12-11.947-11.947-11.947s-11.947 5.12-11.947 11.947v0 17.067h-17.067c-6.827 0-11.947 5.12-11.947 11.947s5.12 11.947 11.947 11.947v0h17.067v17.067c0 6.827 5.12 11.947 11.947 11.947z" />
<glyph unicode="&#xe91b;" glyph-name="left-arrow-44x44" data-tags="left-arrow-44x44" d="M511.993 954.191c281.6 0 512-230.4 512-512s-230.4-512-512-512-512 230.4-512 512c0 281.6 230.4 512 512 512zM511.993 865.755c-232.727 0-423.564-190.836-423.564-423.564s190.836-423.564 423.564-423.564c232.727 0 423.564 190.836 423.564 423.564s-190.836 423.564-423.564 423.564zM614.393 660.955c18.618-16.291 18.618-44.218 0-62.836l-176.873-169.891 176.873-169.891c18.618-16.291 18.618-44.218 0-62.836-9.309-4.655-20.945-9.309-32.582-9.309s-23.273 4.655-32.582 13.964l-209.455 200.145c-18.618 16.291-18.618 44.218 0 62.836l209.455 200.145c18.618 16.291 46.545 16.291 65.164-2.327z" />
<glyph unicode="&#xe91c;" glyph-name="right-arrow-44x44" data-tags="right-arrow-44x44" d="M512 954.182c281.6 0 512-230.4 512-512s-230.4-512-512-512-512 230.4-512 512c0 281.6 230.4 512 512 512zM512 865.746c-232.727 0-423.564-190.836-423.564-423.564s190.836-423.564 423.564-423.564c232.727 0 423.564 190.836 423.564 423.564s-190.836 423.564-423.564 423.564zM474.764 660.946l209.455-200.145c9.309-9.309 13.964-18.618 13.964-30.255s-4.655-23.273-13.964-30.255l-209.455-200.145c-9.309-9.309-20.945-13.964-32.582-13.964s-23.273 4.655-32.582 13.964c-18.618 16.291-18.618 44.218 0 62.836l176.873 169.891-176.873 169.891c-18.618 16.291-18.618 44.218 0 62.836 18.618 13.964 46.545 13.964 65.164-4.655z" />
<glyph unicode="&#xe91d;" glyph-name="video-50x50" data-tags="video-50x50" d="M512 962.56c-282.624 0-512-229.376-512-512s229.376-512 512-512 512 229.376 512 512-229.376 512-512 512zM673.792 425.984l-245.76-145.408c-22.528-12.288-51.2 2.048-51.2 28.672v290.816c0 28.672 30.72 40.96 51.2 28.672l245.76-145.408c22.528-12.288 22.528-45.056 0-57.344z" />
<glyph unicode="&#xe91e;" glyph-name="neuroscience-88x88" data-tags="neuroscience-88x88" d="M424.96 796.315c88.747 22.187 186.88 3.413 256-49.493 57.173-43.52 89.6-105.813 91.307-176.64 0.853-19.627-2.56-50.347-9.387-71.68-5.12-15.36-5.973-73.387 12.8-103.253 4.267-5.973 8.533-12.8 13.653-18.773 7.68-9.387 15.36-19.627 20.48-29.867 4.267-8.533 5.12-17.067 2.56-23.893-4.267-12.8-17.92-19.627-29.013-24.747-2.56-0.853-4.267-2.56-6.827-3.413 1.707-12.8 2.56-24.747 4.267-36.693 0.853-8.533-4.267-16.213-12.8-18.773 0 0 0 0 0 0v0l0.853-5.12c1.707-7.68-2.56-15.36-9.387-18.773v0l-10.24-5.12c-1.707-8.533-0.853-17.067-0.853-26.453 0.853-24.747 1.707-55.467-35.84-69.973-20.48-7.68-41.813-4.267-58.027 0-7.68 1.707-16.213 4.267-23.893 6.827-18.773 5.12-36.693 10.24-54.613 13.653-5.973-7.68-11.947-16.213-18.773-23.893-27.307-34.987-56.32-70.827-62.293-110.933 0-4.267-1.707-7.68-5.12-10.24-1.707-1.707-4.267-1.707-6.827-1.707-3.413 0-5.973 0.853-8.533 3.413 0 0-0.853 0.853-0.853 0.853-1.707 2.56-2.56 5.973-2.56 8.533 5.973 46.933 38.4 88.747 67.413 124.587 6.827 8.533 13.653 17.067 19.627 24.747 0.853 2.56 1.707 5.12 3.413 6.827 2.56 2.56 5.973 3.413 9.387 2.56 23.040-3.413 45.227-9.387 65.707-15.36 7.68-2.56 15.36-4.267 23.040-6.827 13.653-3.413 29.867-6.827 43.52-0.853 20.48 7.68 21.333 21.333 20.48 47.787 0 12.8-0.853 25.6 2.56 38.4 0.853 3.413 3.413 5.973 5.973 7.68v0l10.24 5.12v6.827c-0.853 2.56 0 5.12 0.853 7.68 2.56 5.973 7.68 10.24 13.653 11.947-1.707 12.8-2.56 25.6-4.267 38.4 0 4.267 1.707 8.533 4.267 10.24 4.267 3.413 10.24 5.973 16.213 8.533 6.827 3.413 16.213 7.68 17.067 11.093 0.853 1.707-0.853 4.267-1.707 5.973-4.267 8.533-11.093 17.067-17.92 25.6-5.12 6.827-11.093 13.653-15.36 21.333-23.893 37.547-21.333 104.107-15.36 122.88 5.973 17.92 8.533 45.227 8.533 63.147-0.853 32.427-8.533 63.147-23.893 90.453-13.653 25.6-33.28 48.64-58.88 67.413-64 48.64-154.453 65.707-236.373 45.227 0 0 0 0 0 0s-6.827-1.707-17.92-5.12l-1.707 0.853c-11.947-4.267-27.307-10.24-44.373-18.773-33.28-16.213-77.653-45.227-106.667-93.013-31.573-51.2-38.4-114.347-19.627-186.88 19.627-77.653 63.147-145.92 105.813-209.92 3.413-3.413 4.267-8.533 2.56-12.8-18.773-43.52-43.52-82.773-75.093-116.053-4.267-5.12-11.947-5.12-17.067-0.853s-5.12 11.947-0.853 17.067c28.16 29.867 50.347 64 68.267 102.4-42.667 64-86.187 133.973-106.667 213.333-20.48 78.507-12.8 147.627 23.040 204.8 31.573 52.053 81.067 84.48 116.907 102.4 36.693 19.627 66.56 27.307 69.12 27.307zM496.64 698.182c101.547 0 182.613-77.653 186.027-81.067 2.56-2.56 3.413-5.12 3.413-8.533s-1.707-5.973-3.413-8.533c-3.413-3.413-84.48-81.067-186.027-81.067s-182.613 77.653-186.027 81.067c-2.56 2.56-3.413 5.12-3.413 8.533s1.707 5.973 3.413 8.533c3.413 3.413 84.48 81.067 186.027 81.067zM122.88 554.822c0.853 6.827 7.68 11.947 13.653 10.24v0l27.307-5.12c6.827-0.853 11.093-7.68 9.387-14.507-0.853-5.973-5.973-10.24-11.947-10.24-0.853 0-1.707 0-1.707 0v0l-27.307 5.12c-5.973 0.853-10.24 6.827-9.387 14.507zM855.893 565.062c6.827 0.853 12.8-3.413 13.653-10.24s-3.413-13.653-9.387-14.507v0l-27.307-5.12c-0.853 0-1.707 0-1.707 0-5.973 0-11.093 4.267-11.947 10.24-0.853 6.827 3.413 13.653 9.387 14.507v0l27.307 5.12zM492.373 670.875c-32.427-2.56-58.027-29.013-58.027-62.293 0-34.133 28.16-62.293 62.293-62.293 32.427 0 59.733 25.6 62.293 58.027-3.413-0.853-5.973-0.853-9.387-0.853-31.573 0-58.027 26.453-58.027 58.027 0 3.413 0 5.973 0.853 9.387zM517.12 673.435c-1.707-4.267-2.56-7.68-2.56-11.947 0-18.773 15.36-34.133 34.133-34.133 5.12 0 10.24 0.853 15.36 3.413 3.413 1.707 7.68 1.707 11.093 0s5.973-5.12 5.973-8.533c0.853-4.267 0.853-8.533 0.853-12.8 0-20.48-6.827-38.4-18.773-53.76 42.667 15.36 76.8 40.107 92.16 53.76-20.48 17.067-74.24 56.32-138.24 64zM429.227 662.342c-42.667-15.36-76.8-40.107-92.16-53.76 16.213-12.8 49.493-38.4 92.16-53.76-11.947 14.507-18.773 33.28-18.773 53.76s7.68 38.4 18.773 53.76zM145.067 697.329c3.413 5.973 10.24 7.68 15.36 4.267v0l44.373-27.307c5.12-3.413 6.827-10.24 4.267-16.213-1.707-4.267-5.973-5.973-9.387-5.973-1.707 0-3.413 0.853-5.973 1.707v0l-44.373 27.307c-5.973 3.413-7.68 10.24-4.267 16.213zM832.853 701.595c5.12 3.413 11.947 1.707 15.36-4.267s0.853-12.8-4.267-16.213v0l-44.373-27.307c-1.707-0.853-3.413-1.707-5.973-1.707-4.267 0-7.68 2.56-9.387 5.973-3.413 5.973-0.853 12.8 4.267 16.213v0l44.373 27.307zM239.787 808.262c5.12 4.267 11.947 3.413 16.213-1.707v0l33.28-42.667c4.267-5.12 3.413-12.8-1.707-17.067-2.56-1.707-5.12-2.56-7.68-2.56-3.413 0-6.827 1.707-8.533 4.267v0l-33.28 42.667c-4.267 5.12-3.413 12.8 1.707 17.067zM742.4 806.555c4.267 5.12 11.093 5.973 16.213 1.707s5.12-11.947 1.707-17.067v0l-33.28-42.667c-2.56-2.56-5.12-4.267-8.533-4.267-2.56 0-5.12 0.853-7.68 2.56-5.12 4.267-5.12 11.947-1.707 17.067v0l33.28 42.667zM360.96 876.529c5.973 2.56 12.8-0.853 14.507-6.827v0l17.92-48.64c2.56-5.973-0.853-12.8-6.827-14.507-1.707-0.853-2.56-0.853-4.267-0.853-5.12 0-9.387 2.56-11.093 7.68v0l-17.92 48.64c-1.707 5.973 1.707 12.8 7.68 14.507zM622.933 869.702c2.56 5.973 8.533 9.387 14.507 6.827s9.387-8.533 6.827-14.507v0l-17.92-48.64c-1.707-4.267-5.973-7.68-11.093-7.68-1.707 0-2.56 0-4.267 0.853-5.973 2.56-9.387 8.533-6.827 14.507v0l18.773 48.64zM499.2 902.982c6.827 0 12.8-5.973 12.8-12.8v0-57.173c0-6.827-5.973-12.8-12.8-12.8s-12.8 6.827-12.8 13.653v0 56.32c0 6.827 5.973 12.8 12.8 12.8z" />
<glyph unicode="&#xe91f;" glyph-name="socialemolearning-88x88" data-tags="socialemolearning-88x88" d="M424.96 796.315c88.747 22.187 186.88 3.413 256-49.493 57.173-43.52 89.6-105.813 91.307-176.64 0.853-19.627-2.56-50.347-9.387-71.68-5.12-15.36-5.973-73.387 12.8-103.253 4.267-5.973 8.533-12.8 13.653-18.773 7.68-9.387 15.36-19.627 20.48-29.867 4.267-8.533 5.12-17.067 2.56-23.893-4.267-12.8-17.92-19.627-29.013-24.747-2.56-0.853-4.267-2.56-6.827-3.413 1.707-12.8 2.56-24.747 4.267-36.693 0.853-8.533-4.267-16.213-12.8-18.773 0 0 0 0 0 0v0l0.853-5.12c1.707-7.68-2.56-15.36-9.387-18.773v0l-10.24-5.12c-1.707-8.533-0.853-17.067-0.853-26.453 0.853-24.747 1.707-55.467-35.84-69.973-20.48-7.68-41.813-4.267-58.027 0-7.68 1.707-16.213 4.267-23.893 6.827-18.773 5.12-36.693 10.24-54.613 13.653-5.973-7.68-11.947-16.213-18.773-23.893-27.307-34.987-56.32-70.827-62.293-110.933 0-4.267-1.707-7.68-5.12-10.24-1.707-1.707-4.267-1.707-6.827-1.707-3.413 0-5.973 0.853-8.533 3.413 0 0-0.853 0.853-0.853 0.853-1.707 2.56-2.56 5.973-2.56 8.533 5.973 46.933 38.4 88.747 67.413 124.587 6.827 8.533 13.653 17.067 19.627 24.747 0.853 2.56 1.707 5.12 3.413 6.827 2.56 2.56 5.973 3.413 9.387 2.56 23.040-3.413 45.227-9.387 65.707-15.36 7.68-2.56 15.36-4.267 23.040-6.827 13.653-3.413 29.867-6.827 43.52-0.853 20.48 7.68 21.333 21.333 20.48 47.787 0 12.8-0.853 25.6 2.56 38.4 0.853 3.413 3.413 5.973 5.973 7.68v0l10.24 5.12c-0.853 2.56-0.853 4.267-1.707 6.827s0 5.12 0.853 7.68c2.56 5.973 7.68 10.24 13.653 11.947-1.707 12.8-2.56 25.6-4.267 38.4 0 4.267 1.707 8.533 4.267 10.24 4.267 3.413 10.24 5.973 16.213 8.533 6.827 3.413 16.213 7.68 17.067 11.093 0.853 1.707-0.853 4.267-1.707 5.973-4.267 8.533-11.093 17.067-17.92 25.6-5.12 6.827-11.093 13.653-15.36 21.333-23.893 37.547-21.333 104.107-15.36 122.88 5.973 17.92 8.533 45.227 8.533 63.147-0.853 32.427-8.533 63.147-23.893 90.453-13.653 25.6-33.28 48.64-58.88 67.413-64 48.64-154.453 65.707-236.373 45.227 0 0 0 0 0 0s-6.827-1.707-17.92-5.12v0.853c-11.947-4.267-27.307-10.24-44.373-18.773-33.28-16.213-77.653-45.227-106.667-93.013-31.573-51.2-38.4-114.347-19.627-186.88 19.627-77.653 63.147-145.92 105.813-209.92 3.413-3.413 4.267-8.533 2.56-12.8-18.773-43.52-43.52-82.773-75.093-116.053-4.267-5.12-11.947-5.12-17.067-0.853s-5.12 11.947-0.853 17.067c28.16 29.867 50.347 64 68.267 102.4-42.667 64-86.187 133.973-106.667 213.333-20.48 78.507-12.8 147.627 23.040 204.8 31.573 52.053 81.067 84.48 116.907 102.4 36.693 19.627 66.56 27.307 69.12 27.307zM554.667 718.662c23.893 0 46.080-11.093 60.587-28.16v0l34.987 8.533c3.413 0.853 6.827 0 10.24-2.56 2.56-2.56 4.267-5.973 4.267-9.387v0-28.16h25.6c6.827 0 11.947-5.12 11.947-11.947v0-254.293c0-6.827-5.12-11.947-11.947-11.947v0h-386.56c-6.827 0-11.947 5.12-11.947 11.947v0 253.44c0 6.827 5.12 11.947 11.947 11.947v0h25.6v28.16c0 3.413 1.707 6.827 4.267 9.387s6.827 3.413 10.24 2.56v0l34.987-8.533c14.507 17.067 35.84 28.16 60.587 28.16 22.187 0 42.667-9.387 58.027-24.747 13.653 16.213 34.987 25.6 57.173 25.6zM677.547 635.035h-13.653v-201.387c0-5.12-3.413-10.24-8.533-11.093v0l-65.707-17.067h87.893v229.547zM329.387 635.035h-13.653v-230.4h87.893l-65.707 17.067c-5.12 1.707-8.533 5.973-8.533 11.093v0 202.24zM352.427 671.729v-229.547l132.267-34.133v65.707c-10.24 7.68-34.133 25.6-58.88 49.493-43.52 42.667-65.707 80.213-65.707 111.787 0 0.853 0 0.853 0 1.707s0 2.56 0 3.413c0 10.24 1.707 20.48 5.973 29.013v0l-13.653 2.56zM640.853 671.729l-12.8-3.413c3.413-9.387 5.973-18.773 5.973-29.013 0-0.853 0-1.707 0-3.413 0-0.853 0-0.853 0-1.707 0-31.573-22.187-69.973-65.707-111.787-24.747-23.893-48.64-41.813-58.88-49.493v0-64.853l132.267 34.133v229.547zM554.667 694.769c-19.627 0-37.547-10.24-47.787-27.307-2.56-3.413-5.973-5.973-10.24-5.973s-7.68 2.56-10.24 5.973c-10.24 17.067-28.16 27.307-47.787 27.307-30.72 0-55.467-24.747-55.467-55.467 0-0.853 0-2.56 0-4.267 0-0.853 0-1.707 0-2.56 1.707-47.787 75.947-111.787 112.64-138.24 36.693 26.453 110.933 90.453 112.64 138.24 0 0.853 0 1.707 0 2.56 0 1.707 0 2.56 0 4.267 0.853 30.72-23.893 55.467-53.76 55.467z" />
<glyph unicode="&#xe920;" glyph-name="mindfulawareness-88x88" data-tags="mindfulawareness-88x88" d="M424.96 796.315c88.747 22.187 186.88 3.413 256-49.493 57.173-43.52 89.6-105.813 91.307-176.64 0.853-19.627-2.56-50.347-9.387-71.68-5.12-15.36-5.973-73.387 12.8-103.253 4.267-5.973 8.533-12.8 13.653-18.773 7.68-9.387 15.36-19.627 20.48-29.867 4.267-8.533 5.12-17.067 2.56-23.893-4.267-12.8-17.92-19.627-29.013-24.747-2.56-0.853-4.267-2.56-6.827-3.413 1.707-12.8 2.56-24.747 4.267-36.693 0.853-8.533-4.267-16.213-12.8-18.773 0 0 0 0 0 0v0l0.853-5.12c1.707-7.68-2.56-15.36-9.387-18.773v0l-10.24-5.12c-1.707-8.533-0.853-17.067-0.853-26.453 0.853-24.747 1.707-55.467-35.84-69.973-20.48-7.68-41.813-4.267-58.027 0-7.68 1.707-16.213 4.267-23.893 6.827-18.773 5.12-36.693 10.24-54.613 13.653-5.973-7.68-11.947-16.213-18.773-23.893-27.307-34.987-56.32-70.827-62.293-110.933 0-4.267-1.707-7.68-5.12-10.24-1.707-1.707-4.267-1.707-6.827-1.707-3.413 0-5.973 0.853-8.533 3.413 0 0-0.853 0.853-0.853 0.853-1.707 2.56-2.56 5.973-2.56 8.533 5.973 46.933 38.4 88.747 67.413 124.587 6.827 8.533 13.653 17.067 19.627 24.747 0.853 2.56 1.707 5.12 3.413 6.827 2.56 2.56 5.973 3.413 9.387 2.56 23.040-3.413 45.227-9.387 65.707-15.36 7.68-2.56 15.36-4.267 23.040-6.827 13.653-3.413 29.867-6.827 43.52-0.853 20.48 7.68 21.333 21.333 20.48 47.787 0 12.8-0.853 25.6 2.56 38.4 0.853 3.413 3.413 5.973 5.973 7.68v0l10.24 5.12c-0.853 2.56-0.853 4.267-1.707 6.827s0 5.12 0.853 7.68c2.56 5.973 7.68 10.24 13.653 11.947-1.707 12.8-2.56 25.6-4.267 38.4 0 4.267 1.707 8.533 4.267 10.24 4.267 3.413 10.24 5.973 16.213 8.533 6.827 3.413 16.213 7.68 17.067 11.093 0.853 1.707-0.853 4.267-1.707 5.973-4.267 8.533-11.093 17.067-17.92 25.6-5.12 6.827-11.093 13.653-15.36 21.333-23.893 37.547-21.333 104.107-15.36 122.88 5.973 17.92 8.533 45.227 8.533 63.147-0.853 32.427-8.533 63.147-23.893 90.453-13.653 25.6-33.28 48.64-58.88 67.413-64 48.64-154.453 65.707-236.373 45.227 0 0 0 0 0 0s-29.867-6.827-65.707-24.747c-29.867-14.507-74.24-43.52-103.253-91.307-31.573-51.2-38.4-114.347-19.627-186.88 19.627-77.653 63.147-145.92 105.813-209.92 3.413-3.413 4.267-8.533 2.56-12.8-18.773-43.52-43.52-82.773-75.093-116.053-4.267-5.12-11.947-5.12-17.067-0.853s-5.12 11.947-0.853 17.067c28.16 29.867 50.347 64 68.267 102.4-42.667 64-86.187 133.973-106.667 213.333-20.48 78.507-12.8 147.627 23.040 204.8 31.573 52.053 81.067 84.48 116.907 102.4 36.693 19.627 66.56 27.307 69.12 27.307zM571.733 705.009c57.173 28.16 83.627 19.627 96.427 7.68s21.333-38.4-7.68-94.72c-0.853-1.707-1.707-3.413-3.413-5.973 23.893-6.827 44.373-16.213 58.027-26.453 5.12-4.267 5.973-11.093 2.56-16.213-4.267-5.12-11.093-5.973-17.067-2.56-12.8 9.387-31.573 17.067-55.467 23.893-8.533-13.653-18.773-28.16-30.72-42.667 11.093-14.507 21.333-28.16 30.72-42.667 10.24 2.56 19.627 5.973 28.16 9.387 0 0.853 0 2.56 0 3.413 0 14.507 11.947 26.453 27.307 26.453s27.307-11.947 27.307-26.453-12.8-24.747-28.16-24.747c-4.267 0-9.387 0.853-12.8 3.413-8.533-3.413-18.773-7.68-29.867-10.24 0.853-1.707 1.707-3.413 3.413-5.973 29.013-56.32 20.48-81.92 7.68-94.72-5.973-5.973-16.213-11.093-31.573-11.093s-35.84 5.12-64.853 18.773c-22.187 11.093-46.080 26.453-69.973 45.227-23.893-17.92-46.933-33.28-69.12-44.373-1.707-13.653-12.8-23.893-27.307-23.893-15.36 0-27.307 11.947-27.307 26.453s11.947 26.453 27.307 26.453c7.68 0 13.653-2.56 18.773-7.68 18.773 9.387 38.4 22.187 58.027 37.547-5.12 4.267-10.24 8.533-15.36 13.653-34.987 1.707-68.267 5.973-97.28 12.8-20.48-34.987-23.040-55.467-22.187-64 0-6.827-5.12-11.947-11.093-11.947-6.827 0-11.947 5.12-11.947 11.093-0.853 18.773 7.68 43.52 23.040 70.827-1.707 0.853-4.267 0.853-5.973 1.707-60.587 19.627-73.387 44.373-73.387 61.44s12.8 41.813 73.387 61.44c1.707 0.853 4.267 0.853 5.973 1.707-10.24 17.92-17.067 34.987-20.48 49.493-9.387 4.267-16.213 13.653-16.213 23.893 0 14.507 11.947 26.453 27.307 26.453s27.307-11.947 27.307-26.453c0-10.24-5.973-18.773-14.507-23.040 3.413-12.8 10.24-28.16 19.627-44.373 29.013 6.827 62.293 11.093 97.28 12.8 5.12 4.267 10.24 9.387 15.36 13.653-26.453 20.48-52.907 35.84-75.947 46.080-5.973 2.56-8.533 9.387-5.973 15.36s9.387 8.533 15.36 5.973c25.6-11.093 55.467-29.013 85.333-52.053 23.893 17.92 47.787 33.28 69.973 45.227zM634.027 479.729c-29.013-6.827-62.293-11.093-97.28-12.8-5.12-4.267-10.24-9.387-15.36-13.653 21.333-16.213 42.667-29.867 62.293-39.253 39.253-19.627 61.44-19.627 69.12-11.947 8.533 9.387 3.413 38.4-18.773 77.653zM501.76 608.582c-8.533 0-17.067 0-24.747-0.853-5.973-5.12-11.947-11.093-17.92-17.067-13.653-13.653-27.307-28.16-39.253-41.813 11.947-14.507 25.6-28.16 39.253-41.813 5.973-5.973 11.947-11.093 17.92-17.067 7.68 0 16.213 0 24.747 0s17.067 0 24.747 0.853c5.973 5.12 11.947 11.093 17.92 17.067 14.507 14.507 27.307 28.16 39.253 41.813-11.947 13.653-24.747 27.307-39.253 41.813-5.973 5.973-11.947 11.093-17.92 17.067-7.68 0-16.213 0-24.747 0zM404.48 530.075c-7.68-10.24-15.36-19.627-21.333-29.867 17.067-3.413 35.84-5.973 57.173-8.533-12.8 13.653-24.747 26.453-35.84 38.4zM599.040 530.929c-11.093-12.8-23.040-25.6-35.84-38.4 20.48 1.707 40.107 4.267 57.173 8.533-5.973 9.387-12.8 18.773-21.333 29.867zM358.4 591.515c-44.373-11.947-68.267-29.013-68.267-42.667s24.747-30.72 68.267-42.667c8.533 13.653 18.773 28.16 30.72 42.667-11.093 14.507-22.187 29.013-30.72 42.667zM563.2 605.169c12.8-12.8 24.747-25.6 35.84-38.4 7.68 10.24 15.36 20.48 21.333 29.867-17.067 4.267-36.693 6.827-57.173 8.533zM440.32 606.022c-21.333-1.707-40.107-5.12-57.173-8.533 6.827-9.387 13.653-19.627 21.333-29.867 11.093 12.8 23.040 25.6 35.84 38.4zM651.947 695.622c-13.653 13.653-65.707-1.707-130.56-51.2 5.12-4.267 10.24-8.533 15.36-13.653 34.987-1.707 68.267-5.973 97.28-12.8 22.187 39.253 27.307 68.267 17.92 77.653z" />
<glyph unicode="&#xe921;" glyph-name="FB-30x30" data-tags="FB-30x30" d="M512 955.733c283.307 0 512-228.693 512-512s-228.693-512-512-512-512 228.693-512 512 228.693 512 512 512zM573.44 716.8c-75.093 0-126.293-44.373-126.293-129.707v0-75.093h-81.92v-98.987h81.92v-242.347h102.4v245.76h78.507l13.653 98.987h-92.16v68.267c0 27.307 6.827 47.787 47.787 47.787v0h51.2v81.92c-6.827 3.413-40.96 3.413-75.093 3.413z" />
<glyph unicode="&#xe922;" glyph-name="Insta-30x30" data-tags="Insta-30x30" d="M512 955.733c283.307 0 512-228.693 512-512s-228.693-512-512-512-512 228.693-512 512 228.693 512 512 512zM402.773 706.56c-40.96-3.413-78.507-10.24-109.227-40.96s-40.96-68.267-40.96-109.227c-3.413-44.373-3.413-174.080 0-218.453 3.413-40.96 10.24-78.507 40.96-109.227s68.267-40.96 109.227-40.96c44.373-3.413 174.080-3.413 218.453 0 40.96 3.413 78.507 10.24 109.227 40.96s40.96 68.267 40.96 109.227c3.413 44.373 3.413 174.080 0 218.453-3.413 40.96-10.24 78.507-40.96 109.227s-68.267 40.96-109.227 40.96c-44.373 3.413-174.080 3.413-218.453 0zM512 658.773c37.547 0 119.467 3.413 157.013-10.24 23.893-10.24 40.96-27.307 51.2-51.2 13.653-34.133 10.24-116.053 10.24-157.013s3.413-119.467-10.24-157.013c-10.24-23.893-27.307-40.96-51.2-51.2-34.133-13.653-116.053-10.24-157.013-10.24s-119.467-3.413-157.013 10.24c-23.893 10.24-40.96 27.307-51.2 51.2-13.653 34.133-10.24 116.053-10.24 157.013s0 122.88 13.653 160.427c6.827 20.48 27.307 40.96 47.787 47.787 37.547 13.653 119.467 10.24 157.013 10.24zM512 580.266c-75.093 0-136.533-61.44-136.533-136.533s61.44-136.533 136.533-136.533 136.533 61.44 136.533 136.533-61.44 136.533-136.533 136.533zM512 532.48c47.787 0 88.747-40.96 88.747-88.747s-40.96-88.747-88.747-88.747-88.747 40.96-88.747 88.747 40.96 88.747 88.747 88.747zM651.947 617.813c-17.067 0-30.72-13.653-30.72-30.72s13.653-30.72 30.72-30.72c17.067 0 30.72 13.653 30.72 30.72 3.413 13.653-13.653 30.72-30.72 30.72z" />
<glyph unicode="&#xe923;" glyph-name="LinkedIn-30x30" data-tags="LinkedIn-30x30" d="M512 955.733c283.307 0 512-228.693 512-512s-228.693-512-512-512-512 228.693-512 512 228.693 512 512 512zM378.88 549.546h-98.987v-320.853h98.987v320.853zM631.467 556.373c-47.787 0-81.92-27.307-95.573-51.2v0 0 44.373h-95.573v-320.853h98.987v157.013c0 40.96 6.827 81.92 58.027 81.92 47.787 0 51.2-40.96 51.2-75.093v-163.84h102.4v177.493c0 85.333-17.067 150.187-119.467 150.187zM331.093 709.973c-34.133 0-58.027-27.307-58.027-58.027s27.307-58.027 58.027-58.027c30.72 0 58.027 27.307 58.027 58.027s-27.307 58.027-58.027 58.027z" />
<glyph unicode="&#xe924;" glyph-name="Twitter-30x30" data-tags="Twitter-30x30" d="M512 955.733c283.307 0 512-228.693 512-512s-228.693-512-512-512-512 228.693-512 512 228.693 512 512 512zM617.813 662.186c-61.44 0-112.64-51.2-112.64-112.64 0-10.24 0-17.067 3.413-27.307-92.16 3.413-177.493 47.787-232.107 116.053-10.24-17.067-13.653-37.547-13.653-58.027 0-37.547 20.48-75.093 51.2-92.16-17.067 0-37.547 6.827-51.2 13.653v0 0c0-54.613 37.547-98.987 88.747-109.227-10.24-3.413-20.48-3.413-30.72-3.413-6.827 0-13.653 0-20.48 3.413 13.653-44.373 54.613-78.507 105.813-78.507-37.547-30.72-85.333-47.787-139.947-47.787-10.24 0-17.067 0-27.307 0 51.2-30.72 109.227-51.2 174.080-51.2 208.213 0 320.853 170.667 320.853 320.853 0 3.413 0 10.24 0 13.653 20.48 17.067 40.96 37.547 58.027 58.027-20.48-10.24-40.96-13.653-64.853-17.067 23.893 13.653 40.96 37.547 47.787 61.44-20.48-13.653-44.373-23.893-71.68-27.307-23.893 23.893-54.613 37.547-85.333 37.547z" />
<glyph unicode="&#xe925;" glyph-name="endquote" data-tags="endquote" horiz-adv-x="1707" d="M936.77-43.27c79.644 0 163.081 7.585 242.726 34.133 242.726 72.059 341.333 219.97 398.222 455.111l121.363 508.207h-625.778l-113.778-496.83h254.104c-41.719-197.215-128.948-261.689-318.578-273.067l-53.096-223.763c34.133 0 60.681-3.793 94.815-3.793zM91.022-43.27c79.644 0 163.081 7.585 242.726 34.133 242.726 72.059 341.333 219.97 398.222 455.111l121.363 508.207h-625.778l-113.778-496.83h254.104c-41.719-197.215-128.948-261.689-318.578-273.067l-49.304-223.763c30.341 0 60.681-3.793 91.022-3.793z" />
<glyph unicode="&#xe926;" glyph-name="openquote" data-tags="openquote" horiz-adv-x="1707" d="M1467.733-43.27l113.778 496.83h-254.104c41.719 197.215 128.948 261.689 318.578 273.067l49.304 223.763c-26.548 0-56.889 3.793-83.437 3.793-87.23 0-166.874-7.585-254.104-34.133-242.726-72.059-341.333-219.97-398.222-455.111l-121.363-508.207h629.57zM625.778-43.27l113.778 496.83h-254.104c41.719 197.215 128.948 261.689 318.578 273.067l53.096 223.763c-30.341 0-60.681 3.793-87.23 3.793-87.23 0-166.874-7.585-254.104-34.133-242.726-72.059-341.333-219.97-398.222-455.111l-117.57-508.207h625.778z" />
<glyph unicode="&#xe927;" glyph-name="mail-82x82" data-tags="mail-82x82" d="M382.127 455.805l-324.683-277.229v554.459l324.683-277.229zM412.098 430.829l87.415-74.927c7.493-6.244 17.483-6.244 24.976 0l87.415 74.927 322.185-273.483h-844.176l322.185 273.483zM89.912 755.512h844.176l-422.088-359.649-422.088 359.649zM966.556 733.034v-553.21l-324.683 275.98 324.683 277.229zM1005.268 774.244v1.249c0 0 0 1.249 0 1.249l-1.249 4.995c0 0 0 1.249-1.249 2.498l-4.995 4.995-4.995 2.498-3.746-4.995v6.244h-951.571c0 0-1.249 0-2.498 0h-1.249l-8.741-3.746-3.746-3.746c0 0 0-1.249-1.249-2.498l-1.249-4.995c0 0 0-1.249 0-2.498v-639.376c0 0 0-1.249 0-2.498l4.995-8.741 4.995 3.746-3.746-4.995 6.244-3.746c0 0 1.249 0 2.498-1.249l3.746-1.249h952.82l6.244 1.249 6.244 3.746 3.746 6.244-4.995 2.498 6.244-2.498 1.249 2.498c0 0 0 1.249 0 2.498v1.249l-3.746 639.376z" />
</font></defs></svg>